0 4660.0
1 4772.0
2 4413.0
3 4549.0
4 4737.0
5 4668.0
6 4750.0
7 4680.0
8 4557.0
9 4617.0
10 4431.0
11 4761.0
12 4604.0
13 4597.0
14 4361.0
15 4706.0
16 4827.0
17 4500.0
18 4764.0
19 4566.0
20 4808.0
21 4323.0
22 4651.0
23 4615.0
24 4672.0
25 4665.0
26 4433.0
27 4753.0
28 4764.0
29 4858.0
30 4431.0
31 4580.0
32 4762.0
33 4812.0
34 4386.0
35 4699.0
36 4632.0
37 4665.0
38 4697.0
39 4689.0
40 4816.0
41 4792.0
42 4672.0
43 4856.0
44 4699.0
45 4898.0
46 4839.0
47 4513.0
48 4744.0
49 4772.0
50 4805.0
51 5018.0
52 4583.0
53 4808.0
54 4889.0
55 4639.0
56 4063.0
57 4603.0
58 4700.0
59 4785.0
60 4394.0
61 4658.0
62 4660.0
63 4936.0
64 4712.0
65 4535.0
66 4812.0
67 4968.0
68 4707.0
69 4792.0
70 4319.0
71 4809.0
72 4835.0
73 4735.0
74 4722.0
75 4545.0
76 4609.0
77 4693.0
78 4777.0
79 4449.0
80 4815.0
81 4607.0
82 4871.0
83 4755.0
84 4795.0
85 4770.0
86 4899.0
87 4884.0
88 4834.0
89 4872.0
90 4685.0
91 4673.0
92 4757.0
93 1599.0
94 0.0
95 0.0
96 0.0
97 0.0
98 0.0
99 0.0
100 0.0
101 0.0
102 0.0
103 0.0
104 0.0
105 0.0
106 0.0
107 0.0
108 0.0
109 0.0
110 0.0
111 0.0
112 0.0
113 0.0
114 0.0
115 0.0
116 0.0
117 0.0
118 0.0
119 0.0
120 0.0
