0 550.0
1 574.0
2 534.0
3 463.0
4 556.0
5 583.0
6 490.0
7 471.0
8 624.0
9 562.0
10 454.0
11 586.0
12 595.0
13 481.0
14 544.0
15 518.0
16 550.0
17 579.0
18 558.0
19 483.0
20 554.0
21 569.0
22 425.0
23 621.0
24 568.0
25 607.0
26 648.0
27 462.0
28 578.0
29 574.0
30 673.0
31 668.0
32 503.0
33 617.0
34 555.0
35 610.0
36 552.0
37 590.0
38 755.0
39 502.0
40 657.0
41 569.0
42 558.0
43 629.0
44 721.0
45 622.0
46 553.0
47 669.0
48 654.0
49 499.0
50 541.0
51 672.0
52 506.0
53 551.0
54 729.0
55 670.0
56 527.0
57 718.0
58 631.0
59 432.0
60 551.0
61 498.0
62 503.0
63 517.0
64 621.0
65 606.0
66 558.0
67 564.0
68 596.0
69 620.0
70 588.0
71 562.0
72 448.0
73 506.0
74 544.0
75 588.0
76 503.0
77 510.0
78 551.0
79 604.0
80 615.0
81 593.0
82 529.0
83 554.0
84 475.0
85 546.0
86 509.0
87 535.0
88 557.0
89 555.0
90 513.0
91 605.0
92 527.0
93 405.0
94 0.0
95 0.0
96 0.0
97 0.0
98 0.0
99 0.0
100 0.0
101 0.0
102 0.0
103 0.0
104 0.0
105 0.0
106 0.0
107 0.0
108 0.0
109 0.0
110 0.0
111 0.0
112 0.0
113 0.0
114 0.0
115 0.0
116 0.0
117 0.0
118 0.0
119 0.0
120 0.0
