0 274.0
1 169.0
2 289.0
3 179.0
4 188.0
5 258.0
6 241.0
7 173.0
8 242.0
9 229.0
10 225.0
11 271.0
12 247.0
13 302.0
14 277.0
15 212.0
16 242.0
17 220.0
18 254.0
19 288.0
20 209.0
21 285.0
22 204.0
23 264.0
24 278.0
25 243.0
26 256.0
27 180.0
28 206.0
29 268.0
30 271.0
31 310.0
32 224.0
33 241.0
34 303.0
35 284.0
36 223.0
37 265.0
38 177.0
39 261.0
40 284.0
41 234.0
42 244.0
43 267.0
44 178.0
45 233.0
46 205.0
47 277.0
48 283.0
49 281.0
50 245.0
51 225.0
52 300.0
53 240.0
54 240.0
55 143.0
56 243.0
57 325.0
58 314.0
59 258.0
60 308.0
61 226.0
62 222.0
63 293.0
64 246.0
65 366.0
66 299.0
67 290.0
68 330.0
69 242.0
70 276.0
71 190.0
72 339.0
73 288.0
74 234.0
75 323.0
76 293.0
77 288.0
78 272.0
79 266.0
80 293.0
81 186.0
82 207.0
83 310.0
84 313.0
85 301.0
86 292.0
87 270.0
88 288.0
89 293.0
90 300.0
91 279.0
92 320.0
93 298.0
94 292.0
95 240.0
96 235.0
97 243.0
98 349.0
99 310.0
100 276.0
101 286.0
102 242.0
103 261.0
104 324.0
105 306.0
106 309.0
107 314.0
108 281.0
109 247.0
110 176.0
111 284.0
112 338.0
113 248.0
114 288.0
115 332.0
116 303.0
117 265.0
118 279.0
119 248.0
120 286.0
