0 364.0
1 438.0
2 390.0
3 362.0
4 434.0
5 396.0
6 338.0
7 316.0
8 365.0
9 417.0
10 367.0
11 426.0
12 336.0
13 335.0
14 353.0
15 344.0
16 376.0
17 421.0
18 395.0
19 371.0
20 385.0
21 397.0
22 404.0
23 412.0
24 366.0
25 402.0
26 389.0
27 327.0
28 373.0
29 416.0
30 376.0
31 365.0
32 359.0
33 342.0
34 375.0
35 382.0
36 365.0
37 355.0
38 420.0
39 380.0
40 412.0
41 346.0
42 324.0
43 315.0
44 423.0
45 319.0
46 406.0
47 402.0
48 382.0
49 361.0
50 289.0
51 405.0
52 417.0
53 376.0
54 431.0
55 342.0
56 413.0
57 371.0
58 351.0
59 398.0
60 399.0
61 376.0
62 400.0
63 341.0
64 403.0
65 361.0
66 458.0
67 328.0
68 409.0
69 422.0
70 368.0
71 355.0
72 420.0
73 405.0
74 388.0
75 440.0
76 317.0
77 324.0
78 338.0
79 380.0
80 409.0
81 400.0
82 397.0
83 333.0
84 450.0
85 421.0
86 373.0
87 380.0
88 387.0
89 463.0
90 322.0
91 413.0
92 417.0
93 433.0
94 440.0
95 357.0
96 386.0
97 402.0
98 447.0
99 398.0
100 390.0
101 410.0
102 363.0
103 396.0
104 390.0
105 300.0
106 0.0
107 0.0
108 0.0
109 0.0
110 0.0
111 0.0
112 0.0
113 0.0
114 0.0
115 0.0
116 0.0
117 0.0
118 0.0
119 0.0
120 0.0
