0 343.0
1 304.0
2 365.0
3 357.0
4 310.0
5 294.0
6 295.0
7 224.0
8 299.0
9 340.0
10 295.0
11 293.0
12 302.0
13 298.0
14 315.0
15 282.0
16 302.0
17 304.0
18 330.0
19 291.0
20 374.0
21 269.0
22 295.0
23 321.0
24 325.0
25 341.0
26 284.0
27 378.0
28 330.0
29 363.0
30 316.0
31 319.0
32 355.0
33 322.0
34 286.0
35 302.0
36 307.0
37 310.0
38 273.0
39 262.0
40 333.0
41 319.0
42 344.0
43 344.0
44 256.0
45 310.0
46 335.0
47 336.0
48 253.0
49 321.0
50 316.0
51 277.0
52 301.0
53 308.0
54 255.0
55 273.0
56 293.0
57 331.0
58 280.0
59 343.0
60 328.0
61 326.0
62 324.0
63 257.0
64 302.0
65 347.0
66 309.0
67 336.0
68 368.0
69 306.0
70 304.0
71 364.0
72 336.0
73 353.0
74 310.0
75 320.0
76 335.0
77 333.0
78 355.0
79 330.0
80 310.0
81 291.0
82 352.0
83 310.0
84 293.0
85 287.0
86 403.0
87 297.0
88 351.0
89 354.0
90 334.0
91 274.0
92 319.0
93 332.0
94 329.0
95 291.0
96 270.0
97 323.0
98 350.0
99 317.0
100 320.0
101 319.0
102 337.0
103 324.0
104 326.0
105 308.0
106 300.0
107 14.0
108 0.0
109 0.0
110 0.0
111 0.0
112 0.0
113 0.0
114 0.0
115 0.0
116 0.0
117 0.0
118 0.0
119 0.0
120 0.0
