0 1082.0
1 1067.0
2 1055.0
3 1084.0
4 1093.0
5 1092.0
6 1105.0
7 1129.0
8 1154.0
9 1070.0
10 1084.0
11 1116.0
12 1031.0
13 1062.0
14 1138.0
15 1081.0
16 1066.0
17 1129.0
18 1091.0
19 1090.0
20 1190.0
21 1099.0
22 1103.0
23 1051.0
24 1102.0
25 1033.0
26 1026.0
27 1039.0
28 1044.0
29 1031.0
30 1069.0
31 1128.0
32 1044.0
33 1040.0
34 1195.0
35 1070.0
36 1108.0
37 1130.0
38 1071.0
39 1076.0
40 1082.0
41 1082.0
42 1133.0
43 1127.0
44 1093.0
45 1083.0
46 1203.0
47 1110.0
48 1117.0
49 1103.0
50 1105.0
51 1068.0
52 1139.0
53 1070.0
54 1105.0
55 1162.0
56 1120.0
57 1081.0
58 1135.0
59 1083.0
60 1123.0
61 1120.0
62 1088.0
63 1064.0
64 1242.0
65 1059.0
66 1147.0
67 1129.0
68 1090.0
69 1026.0
70 1124.0
71 1096.0
72 1033.0
73 1059.0
74 1108.0
75 1101.0
76 1154.0
77 1139.0
78 1100.0
79 1144.0
80 1138.0
81 1050.0
82 1118.0
83 1078.0
84 1115.0
85 1141.0
86 1073.0
87 1187.0
88 1097.0
89 1097.0
90 1120.0
91 458.0
92 0.0
93 0.0
94 0.0
95 0.0
96 0.0
97 0.0
98 0.0
99 0.0
100 0.0
101 0.0
102 0.0
103 0.0
104 0.0
105 0.0
106 0.0
107 0.0
108 0.0
109 0.0
110 0.0
111 0.0
112 0.0
113 0.0
114 0.0
115 0.0
116 0.0
117 0.0
118 0.0
119 0.0
120 0.0
