0 502.0
1 581.0
2 539.0
3 587.0
4 503.0
5 546.0
6 382.0
7 529.0
8 540.0
9 458.0
10 636.0
11 494.0
12 566.0
13 383.0
14 600.0
15 649.0
16 634.0
17 534.0
18 460.0
19 464.0
20 508.0
21 649.0
22 512.0
23 517.0
24 579.0
25 556.0
26 601.0
27 445.0
28 619.0
29 519.0
30 628.0
31 604.0
32 463.0
33 443.0
34 583.0
35 481.0
36 524.0
37 546.0
38 516.0
39 550.0
40 466.0
41 528.0
42 551.0
43 556.0
44 535.0
45 469.0
46 578.0
47 571.0
48 639.0
49 556.0
50 592.0
51 599.0
52 601.0
53 542.0
54 626.0
55 506.0
56 608.0
57 497.0
58 388.0
59 574.0
60 564.0
61 493.0
62 517.0
63 567.0
64 524.0
65 568.0
66 403.0
67 415.0
68 540.0
69 548.0
70 544.0
71 495.0
72 616.0
73 563.0
74 736.0
75 628.0
76 456.0
77 570.0
78 589.0
79 619.0
80 539.0
81 581.0
82 562.0
83 597.0
84 449.0
85 598.0
86 577.0
87 512.0
88 527.0
89 532.0
90 585.0
91 586.0
92 539.0
93 508.0
94 596.0
95 543.0
96 490.0
97 457.0
98 509.0
99 282.0
100 0.0
101 0.0
102 0.0
103 0.0
104 0.0
105 0.0
106 0.0
107 0.0
108 0.0
109 0.0
110 0.0
111 0.0
112 0.0
113 0.0
114 0.0
115 0.0
116 0.0
117 0.0
118 0.0
119 0.0
120 0.0
