0 405.0
1 417.0
2 391.0
3 408.0
4 413.0
5 412.0
6 396.0
7 413.0
8 420.0
9 436.0
10 445.0
11 424.0
12 436.0
13 470.0
14 376.0
15 510.0
16 435.0
17 451.0
18 366.0
19 400.0
20 399.0
21 399.0
22 436.0
23 413.0
24 462.0
25 503.0
26 474.0
27 429.0
28 479.0
29 444.0
30 418.0
31 412.0
32 482.0
33 461.0
34 420.0
35 433.0
36 396.0
37 475.0
38 413.0
39 456.0
40 497.0
41 442.0
42 442.0
43 423.0
44 423.0
45 480.0
46 425.0
47 441.0
48 422.0
49 430.0
50 472.0
51 490.0
52 418.0
53 447.0
54 392.0
55 434.0
56 472.0
57 464.0
58 449.0
59 401.0
60 427.0
61 404.0
62 481.0
63 427.0
64 446.0
65 465.0
66 530.0
67 469.0
68 406.0
69 448.0
70 388.0
71 522.0
72 397.0
73 469.0
74 441.0
75 480.0
76 435.0
77 418.0
78 427.0
79 426.0
80 465.0
81 391.0
82 442.0
83 441.0
84 506.0
85 400.0
86 427.0
87 470.0
88 415.0
89 403.0
90 424.0
91 278.0
92 0.0
93 0.0
94 0.0
95 0.0
96 0.0
97 0.0
98 0.0
99 0.0
100 0.0
101 0.0
102 0.0
103 0.0
104 0.0
105 0.0
106 0.0
107 0.0
108 0.0
109 0.0
110 0.0
111 0.0
112 0.0
113 0.0
114 0.0
115 0.0
116 0.0
117 0.0
118 0.0
119 0.0
120 0.0
