0 283.0
1 345.0
2 396.0
3 371.0
4 326.0
5 318.0
6 371.0
7 386.0
8 355.0
9 293.0
10 344.0
11 366.0
12 353.0
13 384.0
14 336.0
15 272.0
16 338.0
17 351.0
18 347.0
19 356.0
20 363.0
21 336.0
22 338.0
23 301.0
24 373.0
25 383.0
26 396.0
27 370.0
28 358.0
29 328.0
30 419.0
31 413.0
32 359.0
33 339.0
34 370.0
35 312.0
36 404.0
37 371.0
38 369.0
39 362.0
40 334.0
41 378.0
42 315.0
43 340.0
44 361.0
45 391.0
46 427.0
47 375.0
48 316.0
49 373.0
50 311.0
51 290.0
52 386.0
53 384.0
54 417.0
55 324.0
56 357.0
57 422.0
58 356.0
59 398.0
60 408.0
61 343.0
62 370.0
63 388.0
64 391.0
65 379.0
66 360.0
67 404.0
68 355.0
69 397.0
70 338.0
71 387.0
72 366.0
73 332.0
74 347.0
75 308.0
76 330.0
77 396.0
78 369.0
79 354.0
80 388.0
81 351.0
82 371.0
83 384.0
84 428.0
85 366.0
86 394.0
87 319.0
88 450.0
89 353.0
90 375.0
91 384.0
92 360.0
93 373.0
94 415.0
95 383.0
96 308.0
97 350.0
98 375.0
99 429.0
100 407.0
101 370.0
102 337.0
103 386.0
104 373.0
105 343.0
106 358.0
107 399.0
108 359.0
109 329.0
110 354.0
111 419.0
112 375.0
113 366.0
114 369.0
115 334.0
116 387.0
117 313.0
118 340.0
119 329.0
120 359.0
