0 161.0
1 131.0
2 140.0
3 151.0
4 179.0
5 134.0
6 138.0
7 170.0
8 160.0
9 132.0
10 178.0
11 161.0
12 152.0
13 148.0
14 160.0
15 131.0
16 123.0
17 142.0
18 132.0
19 143.0
20 138.0
21 179.0
22 166.0
23 165.0
24 141.0
25 163.0
26 182.0
27 175.0
28 143.0
29 173.0
30 119.0
31 167.0
32 159.0
33 159.0
34 150.0
35 211.0
36 151.0
37 187.0
38 179.0
39 162.0
40 129.0
41 187.0
42 136.0
43 160.0
44 169.0
45 131.0
46 171.0
47 185.0
48 160.0
49 148.0
50 156.0
51 123.0
52 149.0
53 193.0
54 166.0
55 137.0
56 123.0
57 166.0
58 143.0
59 136.0
60 185.0
61 166.0
62 153.0
63 123.0
64 144.0
65 182.0
66 159.0
67 148.0
68 135.0
69 147.0
70 158.0
71 147.0
72 158.0
73 169.0
74 167.0
75 137.0
76 157.0
77 186.0
78 160.0
79 146.0
80 185.0
81 147.0
82 193.0
83 153.0
84 155.0
85 155.0
86 179.0
87 171.0
88 122.0
89 198.0
90 144.0
91 130.0
92 142.0
93 131.0
94 51.0
95 0.0
96 0.0
97 0.0
98 0.0
99 0.0
100 0.0
101 0.0
102 0.0
103 0.0
104 0.0
105 0.0
106 0.0
107 0.0
108 0.0
109 0.0
110 0.0
111 0.0
112 0.0
113 0.0
114 0.0
115 0.0
116 0.0
117 0.0
118 0.0
119 0.0
120 0.0
