0 333.0
1 311.0
2 339.0
3 367.0
4 410.0
5 354.0
6 369.0
7 324.0
8 327.0
9 352.0
10 362.0
11 304.0
12 396.0
13 398.0
14 419.0
15 455.0
16 420.0
17 281.0
18 275.0
19 361.0
20 378.0
21 312.0
22 304.0
23 392.0
24 430.0
25 348.0
26 414.0
27 346.0
28 366.0
29 413.0
30 338.0
31 324.0
32 269.0
33 290.0
34 352.0
35 381.0
36 324.0
37 403.0
38 328.0
39 345.0
40 319.0
41 394.0
42 303.0
43 308.0
44 346.0
45 347.0
46 330.0
47 400.0
48 430.0
49 410.0
50 363.0
51 405.0
52 332.0
53 386.0
54 349.0
55 424.0
56 407.0
57 316.0
58 372.0
59 451.0
60 449.0
61 359.0
62 377.0
63 389.0
64 392.0
65 359.0
66 368.0
67 382.0
68 365.0
69 361.0
70 337.0
71 358.0
72 347.0
73 376.0
74 345.0
75 337.0
76 377.0
77 301.0
78 300.0
79 323.0
80 402.0
81 447.0
82 339.0
83 303.0
84 314.0
85 325.0
86 336.0
87 377.0
88 353.0
89 363.0
90 308.0
91 311.0
92 351.0
93 375.0
94 331.0
95 293.0
96 417.0
97 47.0
98 0.0
99 0.0
100 0.0
101 0.0
102 0.0
103 0.0
104 0.0
105 0.0
106 0.0
107 0.0
108 0.0
109 0.0
110 0.0
111 0.0
112 0.0
113 0.0
114 0.0
115 0.0
116 0.0
117 0.0
118 0.0
119 0.0
120 0.0
