0 300.0
1 356.0
2 403.0
3 351.0
4 362.0
5 375.0
6 461.0
7 359.0
8 367.0
9 326.0
10 365.0
11 334.0
12 330.0
13 413.0
14 341.0
15 353.0
16 344.0
17 338.0
18 339.0
19 387.0
20 340.0
21 423.0
22 333.0
23 407.0
24 424.0
25 387.0
26 392.0
27 391.0
28 399.0
29 391.0
30 413.0
31 377.0
32 390.0
33 342.0
34 358.0
35 332.0
36 400.0
37 324.0
38 381.0
39 392.0
40 359.0
41 394.0
42 336.0
43 311.0
44 364.0
45 345.0
46 440.0
47 459.0
48 363.0
49 411.0
50 442.0
51 364.0
52 395.0
53 385.0
54 427.0
55 382.0
56 352.0
57 390.0
58 359.0
59 386.0
60 441.0
61 430.0
62 403.0
63 376.0
64 325.0
65 328.0
66 330.0
67 359.0
68 324.0
69 322.0
70 371.0
71 362.0
72 312.0
73 315.0
74 336.0
75 315.0
76 305.0
77 309.0
78 321.0
79 267.0
80 271.0
81 284.0
82 310.0
83 287.0
84 358.0
85 310.0
86 302.0
87 445.0
88 304.0
89 330.0
90 323.0
91 346.0
92 327.0
93 296.0
94 309.0
95 301.0
96 361.0
97 385.0
98 450.0
99 385.0
100 354.0
101 308.0
102 325.0
103 326.0
104 398.0
105 363.0
106 400.0
107 426.0
108 367.0
109 318.0
110 353.0
111 312.0
112 391.0
113 378.0
114 386.0
115 312.0
116 404.0
117 417.0
118 365.0
119 369.0
120 403.0
