0 376.0
1 374.0
2 435.0
3 421.0
4 415.0
5 334.0
6 410.0
7 445.0
8 423.0
9 379.0
10 424.0
11 397.0
12 444.0
13 373.0
14 390.0
15 406.0
16 425.0
17 356.0
18 401.0
19 417.0
20 426.0
21 501.0
22 394.0
23 390.0
24 447.0
25 407.0
26 438.0
27 356.0
28 426.0
29 443.0
30 412.0
31 462.0
32 361.0
33 388.0
34 369.0
35 420.0
36 369.0
37 456.0
38 403.0
39 456.0
40 447.0
41 431.0
42 430.0
43 406.0
44 348.0
45 400.0
46 418.0
47 418.0
48 459.0
49 411.0
50 445.0
51 447.0
52 393.0
53 461.0
54 407.0
55 378.0
56 458.0
57 379.0
58 419.0
59 374.0
60 430.0
61 440.0
62 452.0
63 421.0
64 372.0
65 430.0
66 376.0
67 423.0
68 392.0
69 439.0
70 452.0
71 457.0
72 442.0
73 397.0
74 439.0
75 445.0
76 428.0
77 462.0
78 369.0
79 386.0
80 386.0
81 381.0
82 376.0
83 457.0
84 403.0
85 441.0
86 479.0
87 424.0
88 434.0
89 396.0
90 426.0
91 254.0
92 0.0
93 0.0
94 0.0
95 0.0
96 0.0
97 0.0
98 0.0
99 0.0
100 0.0
101 0.0
102 0.0
103 0.0
104 0.0
105 0.0
106 0.0
107 0.0
108 0.0
109 0.0
110 0.0
111 0.0
112 0.0
113 0.0
114 0.0
115 0.0
116 0.0
117 0.0
118 0.0
119 0.0
120 0.0
