0 237.0
1 265.0
2 215.0
3 236.0
4 248.0
5 292.0
6 289.0
7 278.0
8 305.0
9 256.0
10 239.0
11 253.0
12 310.0
13 266.0
14 273.0
15 194.0
16 187.0
17 297.0
18 191.0
19 242.0
20 238.0
21 253.0
22 232.0
23 223.0
24 274.0
25 255.0
26 217.0
27 231.0
28 282.0
29 304.0
30 229.0
31 288.0
32 251.0
33 270.0
34 263.0
35 288.0
36 284.0
37 292.0
38 293.0
39 218.0
40 214.0
41 241.0
42 261.0
43 230.0
44 218.0
45 291.0
46 284.0
47 287.0
48 341.0
49 215.0
50 284.0
51 249.0
52 253.0
53 228.0
54 257.0
55 191.0
56 232.0
57 268.0
58 327.0
59 274.0
60 311.0
61 264.0
62 228.0
63 279.0
64 241.0
65 263.0
66 287.0
67 305.0
68 251.0
69 229.0
70 328.0
71 203.0
72 289.0
73 217.0
74 278.0
75 208.0
76 279.0
77 273.0
78 242.0
79 324.0
80 222.0
81 227.0
82 293.0
83 253.0
84 286.0
85 245.0
86 271.0
87 214.0
88 306.0
89 306.0
90 289.0
91 303.0
92 293.0
93 230.0
94 253.0
95 245.0
96 218.0
97 90.0
98 0.0
99 0.0
100 0.0
101 0.0
102 0.0
103 0.0
104 0.0
105 0.0
106 0.0
107 0.0
108 0.0
109 0.0
110 0.0
111 0.0
112 0.0
113 0.0
114 0.0
115 0.0
116 0.0
117 0.0
118 0.0
119 0.0
120 0.0
