0 238.0
1 257.0
2 223.0
3 237.0
4 255.0
5 302.0
6 266.0
7 272.0
8 322.0
9 256.0
10 241.0
11 255.0
12 303.0
13 271.0
14 275.0
15 193.0
16 209.0
17 274.0
18 191.0
19 234.0
20 256.0
21 243.0
22 237.0
23 218.0
24 277.0
25 252.0
26 217.0
27 231.0
28 274.0
29 303.0
30 237.0
31 291.0
32 248.0
33 259.0
34 272.0
35 280.0
36 293.0
37 295.0
38 284.0
39 242.0
40 193.0
41 231.0
42 270.0
43 236.0
44 210.0
45 301.0
46 283.0
47 286.0
48 306.0
49 251.0
50 303.0
51 255.0
52 225.0
53 231.0
54 259.0
55 195.0
56 226.0
57 281.0
58 312.0
59 275.0
60 311.0
61 261.0
62 229.0
63 283.0
64 244.0
65 257.0
66 288.0
67 305.0
68 245.0
69 238.0
70 325.0
71 203.0
72 286.0
73 216.0
74 282.0
75 225.0
76 266.0
77 270.0
78 246.0
79 312.0
80 229.0
81 227.0
82 300.0
83 254.0
84 279.0
85 235.0
86 280.0
87 206.0
88 307.0
89 312.0
90 299.0
91 289.0
92 286.0
93 233.0
94 261.0
95 244.0
96 227.0
97 83.0
98 0.0
99 0.0
100 0.0
101 0.0
102 0.0
103 0.0
104 0.0
105 0.0
106 0.0
107 0.0
108 0.0
109 0.0
110 0.0
111 0.0
112 0.0
113 0.0
114 0.0
115 0.0
116 0.0
117 0.0
118 0.0
119 0.0
120 0.0
