0 1555.0
1 1555.0
2 1528.0
3 1540.0
4 1514.0
5 1495.0
6 1409.0
7 1587.0
8 1393.0
9 1473.0
10 1415.0
11 1485.0
12 1404.0
13 1578.0
14 1448.0
15 1540.0
16 1547.0
17 1613.0
18 1508.0
19 1597.0
20 1601.0
21 1530.0
22 1570.0
23 1399.0
24 1510.0
25 1613.0
26 1525.0
27 1586.0
28 1583.0
29 1591.0
30 1584.0
31 1479.0
32 1617.0
33 1554.0
34 1526.0
35 1600.0
36 1568.0
37 1481.0
38 1576.0
39 1571.0
40 1545.0
41 1545.0
42 1468.0
43 1546.0
44 1540.0
45 1510.0
46 1528.0
47 1601.0
48 1488.0
49 1598.0
50 1486.0
51 1481.0
52 1593.0
53 1393.0
54 1547.0
55 1511.0
56 1462.0
57 1592.0
58 1489.0
59 1541.0
60 1372.0
61 1501.0
62 1554.0
63 1363.0
64 1590.0
65 1302.0
66 1578.0
67 1584.0
68 1533.0
69 1590.0
70 1600.0
71 1535.0
72 1552.0
73 1511.0
74 1595.0
75 1582.0
76 1589.0
77 1534.0
78 1590.0
79 1480.0
80 1551.0
81 1561.0
82 1538.0
83 1543.0
84 1555.0
85 1561.0
86 1562.0
87 1524.0
88 1590.0
89 1579.0
90 1523.0
91 1581.0
92 0.0
93 0.0
94 0.0
95 0.0
96 0.0
97 0.0
98 0.0
99 0.0
100 0.0
101 0.0
102 0.0
103 0.0
104 0.0
105 0.0
106 0.0
107 0.0
108 0.0
109 0.0
110 0.0
111 0.0
112 0.0
113 0.0
114 0.0
115 0.0
116 0.0
117 0.0
118 0.0
119 0.0
120 0.0
