0 233.0
1 302.0
2 230.0
3 327.0
4 377.0
5 282.0
6 278.0
7 272.0
8 332.0
9 292.0
10 298.0
11 314.0
12 306.0
13 294.0
14 363.0
15 331.0
16 246.0
17 286.0
18 268.0
19 313.0
20 350.0
21 318.0
22 275.0
23 314.0
24 305.0
25 236.0
26 314.0
27 281.0
28 313.0
29 283.0
30 333.0
31 308.0
32 351.0
33 257.0
34 269.0
35 218.0
36 320.0
37 339.0
38 357.0
39 311.0
40 351.0
41 341.0
42 270.0
43 288.0
44 319.0
45 315.0
46 293.0
47 295.0
48 309.0
49 300.0
50 322.0
51 324.0
52 292.0
53 288.0
54 345.0
55 269.0
56 311.0
57 358.0
58 289.0
59 335.0
60 341.0
61 332.0
62 332.0
63 285.0
64 343.0
65 252.0
66 326.0
67 361.0
68 279.0
69 375.0
70 326.0
71 310.0
72 325.0
73 283.0
74 306.0
75 344.0
76 319.0
77 339.0
78 234.0
79 290.0
80 303.0
81 234.0
82 358.0
83 274.0
84 298.0
85 306.0
86 297.0
87 340.0
88 312.0
89 344.0
90 320.0
91 335.0
92 293.0
93 269.0
94 277.0
95 284.0
96 301.0
97 327.0
98 298.0
99 273.0
100 293.0
101 280.0
102 325.0
103 295.0
104 307.0
105 258.0
106 311.0
107 356.0
108 366.0
109 297.0
110 302.0
111 239.0
112 273.0
113 292.0
114 312.0
115 307.0
116 325.0
117 274.0
118 306.0
119 264.0
120 346.0
