0 1508.0
1 1519.0
2 1544.0
3 1550.0
4 1501.0
5 1476.0
6 1574.0
7 1511.0
8 1501.0
9 1473.0
10 1608.0
11 1554.0
12 1475.0
13 1488.0
14 1516.0
15 1493.0
16 1497.0
17 1595.0
18 1517.0
19 1496.0
20 1525.0
21 1502.0
22 1528.0
23 1491.0
24 1583.0
25 1509.0
26 1464.0
27 1495.0
28 1387.0
29 1517.0
30 1543.0
31 1467.0
32 1500.0
33 1462.0
34 1465.0
35 1512.0
36 1413.0
37 1434.0
38 1464.0
39 1519.0
40 1552.0
41 1557.0
42 1501.0
43 1610.0
44 1544.0
45 1533.0
46 1459.0
47 1483.0
48 1441.0
49 1558.0
50 1512.0
51 1538.0
52 1483.0
53 1529.0
54 1459.0
55 1557.0
56 1492.0
57 1457.0
58 1551.0
59 1469.0
60 1573.0
61 1510.0
62 1540.0
63 1528.0
64 1530.0
65 1512.0
66 1505.0
67 1542.0
68 1434.0
69 1534.0
70 1465.0
71 1570.0
72 1534.0
73 1513.0
74 1540.0
75 1506.0
76 1540.0
77 1547.0
78 1555.0
79 1508.0
80 1463.0
81 1518.0
82 1473.0
83 1568.0
84 1521.0
85 1615.0
86 1575.0
87 1516.0
88 1552.0
89 1529.0
90 1539.0
91 1505.0
92 1568.0
93 1513.0
94 1510.0
95 1554.0
96 1518.0
97 1532.0
98 1533.0
99 1591.0
100 1499.0
101 65.0
102 0.0
103 0.0
104 0.0
105 0.0
106 0.0
107 0.0
108 0.0
109 0.0
110 0.0
111 0.0
112 0.0
113 0.0
114 0.0
115 0.0
116 0.0
117 0.0
118 0.0
119 0.0
120 0.0
