0 702.0
1 630.0
2 651.0
3 623.0
4 662.0
5 649.0
6 662.0
7 654.0
8 667.0
9 618.0
10 648.0
11 670.0
12 677.0
13 651.0
14 690.0
15 650.0
16 684.0
17 677.0
18 688.0
19 661.0
20 623.0
21 634.0
22 617.0
23 667.0
24 641.0
25 636.0
26 666.0
27 661.0
28 638.0
29 689.0
30 652.0
31 630.0
32 687.0
33 655.0
34 665.0
35 660.0
36 576.0
37 685.0
38 670.0
39 708.0
40 671.0
41 607.0
42 609.0
43 616.0
44 675.0
45 682.0
46 740.0
47 677.0
48 612.0
49 693.0
50 648.0
51 620.0
52 611.0
53 616.0
54 623.0
55 670.0
56 640.0
57 628.0
58 636.0
59 656.0
60 619.0
61 674.0
62 670.0
63 672.0
64 633.0
65 655.0
66 652.0
67 631.0
68 727.0
69 639.0
70 663.0
71 650.0
72 710.0
73 688.0
74 625.0
75 666.0
76 661.0
77 603.0
78 674.0
79 692.0
80 669.0
81 714.0
82 651.0
83 671.0
84 697.0
85 616.0
86 667.0
87 712.0
88 654.0
89 680.0
90 676.0
91 153.0
92 0.0
93 0.0
94 0.0
95 0.0
96 0.0
97 0.0
98 0.0
99 0.0
100 0.0
101 0.0
102 0.0
103 0.0
104 0.0
105 0.0
106 0.0
107 0.0
108 0.0
109 0.0
110 0.0
111 0.0
112 0.0
113 0.0
114 0.0
115 0.0
116 0.0
117 0.0
118 0.0
119 0.0
120 0.0
