0 401.0
1 292.0
2 314.0
3 384.0
4 388.0
5 330.0
6 364.0
7 394.0
8 354.0
9 314.0
10 277.0
11 329.0
12 353.0
13 346.0
14 356.0
15 423.0
16 345.0
17 261.0
18 322.0
19 338.0
20 368.0
21 351.0
22 334.0
23 326.0
24 376.0
25 399.0
26 329.0
27 394.0
28 352.0
29 363.0
30 407.0
31 380.0
32 412.0
33 394.0
34 385.0
35 421.0
36 328.0
37 433.0
38 450.0
39 387.0
40 388.0
41 461.0
42 392.0
43 376.0
44 414.0
45 390.0
46 385.0
47 350.0
48 307.0
49 359.0
50 418.0
51 391.0
52 344.0
53 351.0
54 357.0
55 364.0
56 373.0
57 448.0
58 415.0
59 335.0
60 384.0
61 416.0
62 402.0
63 364.0
64 334.0
65 311.0
66 354.0
67 346.0
68 343.0
69 346.0
70 381.0
71 399.0
72 365.0
73 409.0
74 427.0
75 371.0
76 415.0
77 368.0
78 445.0
79 422.0
80 405.0
81 382.0
82 360.0
83 430.0
84 357.0
85 403.0
86 433.0
87 369.0
88 366.0
89 361.0
90 372.0
91 429.0
92 426.0
93 418.0
94 340.0
95 387.0
96 375.0
97 364.0
98 382.0
99 367.0
100 336.0
101 390.0
102 399.0
103 388.0
104 432.0
105 344.0
106 358.0
107 404.0
108 401.0
109 315.0
110 396.0
111 401.0
112 380.0
113 418.0
114 380.0
115 409.0
116 433.0
117 344.0
118 380.0
119 429.0
120 488.0
