0 1489.0
1 1486.0
2 1415.0
3 1535.0
4 1490.0
5 1491.0
6 1497.0
7 1521.0
8 1483.0
9 1470.0
10 1564.0
11 1447.0
12 1572.0
13 1521.0
14 1559.0
15 1610.0
16 1425.0
17 1533.0
18 1430.0
19 1503.0
20 1582.0
21 1578.0
22 1523.0
23 1498.0
24 1493.0
25 1448.0
26 1504.0
27 1471.0
28 1661.0
29 1492.0
30 1506.0
31 1418.0
32 1482.0
33 1510.0
34 1521.0
35 1544.0
36 1453.0
37 1433.0
38 1527.0
39 1457.0
40 1554.0
41 1584.0
42 1516.0
43 1557.0
44 1518.0
45 1504.0
46 1547.0
47 1532.0
48 1643.0
49 1550.0
50 1528.0
51 1530.0
52 1483.0
53 1598.0
54 1653.0
55 1479.0
56 1542.0
57 1425.0
58 1548.0
59 1505.0
60 1495.0
61 1583.0
62 1598.0
63 1542.0
64 1454.0
65 1586.0
66 1483.0
67 1460.0
68 1439.0
69 1600.0
70 1609.0
71 1424.0
72 1436.0
73 1611.0
74 1591.0
75 1400.0
76 1389.0
77 1524.0
78 1462.0
79 1614.0
80 1483.0
81 1526.0
82 1444.0
83 1679.0
84 1557.0
85 1602.0
86 1468.0
87 1578.0
88 1510.0
89 1506.0
90 1619.0
91 1096.0
92 0.0
93 0.0
94 0.0
95 0.0
96 0.0
97 0.0
98 0.0
99 0.0
100 0.0
101 0.0
102 0.0
103 0.0
104 0.0
105 0.0
106 0.0
107 0.0
108 0.0
109 0.0
110 0.0
111 0.0
112 0.0
113 0.0
114 0.0
115 0.0
116 0.0
117 0.0
118 0.0
119 0.0
120 0.0
