0 703.0
1 663.0
2 676.0
3 779.0
4 654.0
5 693.0
6 716.0
7 728.0
8 747.0
9 765.0
10 643.0
11 622.0
12 615.0
13 711.0
14 689.0
15 635.0
16 727.0
17 765.0
18 777.0
19 808.0
20 695.0
21 738.0
22 673.0
23 747.0
24 727.0
25 705.0
26 717.0
27 799.0
28 742.0
29 751.0
30 722.0
31 699.0
32 797.0
33 743.0
34 582.0
35 735.0
36 769.0
37 746.0
38 727.0
39 686.0
40 649.0
41 762.0
42 752.0
43 708.0
44 718.0
45 695.0
46 747.0
47 662.0
48 753.0
49 649.0
50 761.0
51 739.0
52 762.0
53 744.0
54 791.0
55 735.0
56 723.0
57 730.0
58 752.0
59 725.0
60 722.0
61 829.0
62 696.0
63 821.0
64 765.0
65 719.0
66 751.0
67 695.0
68 711.0
69 784.0
70 722.0
71 609.0
72 727.0
73 807.0
74 743.0
75 693.0
76 714.0
77 728.0
78 763.0
79 769.0
80 726.0
81 730.0
82 724.0
83 695.0
84 716.0
85 813.0
86 761.0
87 734.0
88 729.0
89 792.0
90 717.0
91 633.0
92 0.0
93 0.0
94 0.0
95 0.0
96 0.0
97 0.0
98 0.0
99 0.0
100 0.0
101 0.0
102 0.0
103 0.0
104 0.0
105 0.0
106 0.0
107 0.0
108 0.0
109 0.0
110 0.0
111 0.0
112 0.0
113 0.0
114 0.0
115 0.0
116 0.0
117 0.0
118 0.0
119 0.0
120 0.0
