0 270.0
1 314.0
2 295.0
3 316.0
4 273.0
5 316.0
6 290.0
7 271.0
8 277.0
9 239.0
10 285.0
11 287.0
12 224.0
13 334.0
14 287.0
15 228.0
16 336.0
17 178.0
18 270.0
19 347.0
20 290.0
21 262.0
22 258.0
23 259.0
24 298.0
25 270.0
26 191.0
27 284.0
28 252.0
29 295.0
30 292.0
31 313.0
32 305.0
33 272.0
34 263.0
35 284.0
36 227.0
37 341.0
38 280.0
39 304.0
40 257.0
41 198.0
42 265.0
43 303.0
44 242.0
45 294.0
46 308.0
47 341.0
48 221.0
49 335.0
50 277.0
51 323.0
52 307.0
53 215.0
54 315.0
55 265.0
56 301.0
57 338.0
58 291.0
59 262.0
60 304.0
61 217.0
62 270.0
63 289.0
64 299.0
65 305.0
66 300.0
67 314.0
68 327.0
69 250.0
70 330.0
71 317.0
72 330.0
73 249.0
74 203.0
75 318.0
76 232.0
77 255.0
78 219.0
79 277.0
80 271.0
81 364.0
82 313.0
83 277.0
84 328.0
85 297.0
86 278.0
87 244.0
88 281.0
89 276.0
90 249.0
91 316.0
92 290.0
93 313.0
94 326.0
95 257.0
96 332.0
97 263.0
98 296.0
99 213.0
100 327.0
101 319.0
102 290.0
103 312.0
104 246.0
105 317.0
106 253.0
107 238.0
108 319.0
109 266.0
110 290.0
111 353.0
112 333.0
113 301.0
114 298.0
115 256.0
116 319.0
117 287.0
118 20.0
119 0.0
120 0.0
