0 304.0
1 342.0
2 305.0
3 313.0
4 305.0
5 267.0
6 210.0
7 233.0
8 291.0
9 262.0
10 278.0
11 336.0
12 266.0
13 298.0
14 300.0
15 246.0
16 329.0
17 341.0
18 313.0
19 296.0
20 298.0
21 299.0
22 285.0
23 293.0
24 322.0
25 235.0
26 244.0
27 283.0
28 200.0
29 325.0
30 332.0
31 253.0
32 270.0
33 248.0
34 302.0
35 269.0
36 206.0
37 304.0
38 340.0
39 276.0
40 274.0
41 283.0
42 262.0
43 225.0
44 305.0
45 324.0
46 292.0
47 353.0
48 316.0
49 282.0
50 290.0
51 286.0
52 340.0
53 270.0
54 322.0
55 334.0
56 309.0
57 331.0
58 272.0
59 294.0
60 279.0
61 280.0
62 262.0
63 283.0
64 309.0
65 321.0
66 305.0
67 294.0
68 340.0
69 285.0
70 389.0
71 266.0
72 287.0
73 315.0
74 323.0
75 331.0
76 313.0
77 289.0
78 239.0
79 198.0
80 299.0
81 239.0
82 270.0
83 235.0
84 290.0
85 255.0
86 278.0
87 333.0
88 290.0
89 351.0
90 369.0
91 271.0
92 270.0
93 306.0
94 277.0
95 264.0
96 267.0
97 319.0
98 289.0
99 273.0
100 322.0
101 240.0
102 288.0
103 315.0
104 264.0
105 283.0
106 299.0
107 245.0
108 319.0
109 288.0
110 237.0
111 285.0
112 332.0
113 343.0
114 270.0
115 285.0
116 261.0
117 309.0
118 310.0
119 214.0
120 249.0
