0 1743.0
1 1826.0
2 1677.0
3 1802.0
4 1779.0
5 1790.0
6 1668.0
7 1781.0
8 1718.0
9 1781.0
10 1832.0
11 1834.0
12 1635.0
13 1839.0
14 1805.0
15 1746.0
16 1806.0
17 1687.0
18 1686.0
19 1809.0
20 1716.0
21 1735.0
22 1824.0
23 1752.0
24 1701.0
25 1741.0
26 1805.0
27 1667.0
28 1812.0
29 1718.0
30 1791.0
31 1765.0
32 1594.0
33 1723.0
34 1752.0
35 1763.0
36 1698.0
37 1777.0
38 1724.0
39 1606.0
40 1660.0
41 1771.0
42 1756.0
43 1756.0
44 1786.0
45 1789.0
46 1794.0
47 1664.0
48 1713.0
49 1768.0
50 1783.0
51 1683.0
52 1692.0
53 1796.0
54 1729.0
55 1770.0
56 1648.0
57 1722.0
58 1756.0
59 1792.0
60 1717.0
61 1687.0
62 1771.0
63 1783.0
64 1646.0
65 1752.0
66 1726.0
67 1744.0
68 1793.0
69 1728.0
70 1809.0
71 1762.0
72 1779.0
73 1791.0
74 1705.0
75 1735.0
76 1784.0
77 1795.0
78 1784.0
79 1774.0
80 1775.0
81 1805.0
82 1796.0
83 1731.0
84 1737.0
85 1660.0
86 1781.0
87 1764.0
88 1688.0
89 1805.0
90 1903.0
91 646.0
92 0.0
93 0.0
94 0.0
95 0.0
96 0.0
97 0.0
98 0.0
99 0.0
100 0.0
101 0.0
102 0.0
103 0.0
104 0.0
105 0.0
106 0.0
107 0.0
108 0.0
109 0.0
110 0.0
111 0.0
112 0.0
113 0.0
114 0.0
115 0.0
116 0.0
117 0.0
118 0.0
119 0.0
120 0.0
