0 418.0
1 370.0
2 377.0
3 354.0
4 387.0
5 384.0
6 409.0
7 352.0
8 467.0
9 453.0
10 386.0
11 434.0
12 429.0
13 398.0
14 319.0
15 358.0
16 416.0
17 425.0
18 417.0
19 432.0
20 383.0
21 388.0
22 425.0
23 443.0
24 377.0
25 382.0
26 448.0
27 387.0
28 364.0
29 393.0
30 450.0
31 416.0
32 443.0
33 395.0
34 417.0
35 367.0
36 418.0
37 401.0
38 455.0
39 471.0
40 441.0
41 411.0
42 402.0
43 353.0
44 434.0
45 377.0
46 435.0
47 420.0
48 430.0
49 310.0
50 456.0
51 460.0
52 396.0
53 445.0
54 481.0
55 422.0
56 430.0
57 417.0
58 429.0
59 470.0
60 415.0
61 471.0
62 429.0
63 429.0
64 409.0
65 410.0
66 443.0
67 431.0
68 407.0
69 451.0
70 385.0
71 407.0
72 467.0
73 419.0
74 377.0
75 431.0
76 379.0
77 376.0
78 422.0
79 413.0
80 439.0
81 395.0
82 411.0
83 437.0
84 448.0
85 463.0
86 456.0
87 383.0
88 437.0
89 435.0
90 440.0
91 338.0
92 0.0
93 0.0
94 0.0
95 0.0
96 0.0
97 0.0
98 0.0
99 0.0
100 0.0
101 0.0
102 0.0
103 0.0
104 0.0
105 0.0
106 0.0
107 0.0
108 0.0
109 0.0
110 0.0
111 0.0
112 0.0
113 0.0
114 0.0
115 0.0
116 0.0
117 0.0
118 0.0
119 0.0
120 0.0
