0 418.0
1 368.0
2 378.0
3 354.0
4 390.0
5 386.0
6 404.0
7 353.0
8 465.0
9 454.0
10 386.0
11 436.0
12 426.0
13 403.0
14 312.0
15 362.0
16 417.0
17 422.0
18 422.0
19 434.0
20 379.0
21 388.0
22 427.0
23 442.0
24 375.0
25 382.0
26 444.0
27 394.0
28 361.0
29 397.0
30 445.0
31 419.0
32 446.0
33 391.0
34 412.0
35 371.0
36 415.0
37 401.0
38 458.0
39 470.0
40 443.0
41 410.0
42 402.0
43 359.0
44 429.0
45 380.0
46 428.0
47 423.0
48 427.0
49 311.0
50 461.0
51 456.0
52 393.0
53 449.0
54 483.0
55 420.0
56 429.0
57 422.0
58 429.0
59 471.0
60 413.0
61 474.0
62 427.0
63 424.0
64 411.0
65 415.0
66 442.0
67 422.0
68 414.0
69 449.0
70 384.0
71 407.0
72 466.0
73 423.0
74 375.0
75 428.0
76 387.0
77 373.0
78 420.0
79 414.0
80 440.0
81 392.0
82 409.0
83 435.0
84 454.0
85 460.0
86 453.0
87 388.0
88 433.0
89 438.0
90 438.0
91 336.0
92 0.0
93 0.0
94 0.0
95 0.0
96 0.0
97 0.0
98 0.0
99 0.0
100 0.0
101 0.0
102 0.0
103 0.0
104 0.0
105 0.0
106 0.0
107 0.0
108 0.0
109 0.0
110 0.0
111 0.0
112 0.0
113 0.0
114 0.0
115 0.0
116 0.0
117 0.0
118 0.0
119 0.0
120 0.0
