0 298.0
1 272.0
2 258.0
3 248.0
4 247.0
5 260.0
6 337.0
7 170.0
8 304.0
9 247.0
10 263.0
11 313.0
12 291.0
13 204.0
14 209.0
15 250.0
16 218.0
17 271.0
18 260.0
19 247.0
20 213.0
21 277.0
22 261.0
23 280.0
24 310.0
25 285.0
26 316.0
27 229.0
28 316.0
29 305.0
30 197.0
31 259.0
32 263.0
33 263.0
34 183.0
35 291.0
36 287.0
37 221.0
38 178.0
39 273.0
40 249.0
41 241.0
42 231.0
43 225.0
44 287.0
45 316.0
46 248.0
47 241.0
48 267.0
49 304.0
50 325.0
51 255.0
52 266.0
53 246.0
54 276.0
55 249.0
56 247.0
57 223.0
58 233.0
59 221.0
60 261.0
61 273.0
62 276.0
63 167.0
64 256.0
65 330.0
66 265.0
67 290.0
68 294.0
69 298.0
70 241.0
71 279.0
72 225.0
73 353.0
74 215.0
75 281.0
76 288.0
77 257.0
78 344.0
79 308.0
80 299.0
81 311.0
82 293.0
83 291.0
84 204.0
85 299.0
86 221.0
87 352.0
88 322.0
89 231.0
90 286.0
91 281.0
92 291.0
93 310.0
94 378.0
95 276.0
96 273.0
97 236.0
98 282.0
99 243.0
100 327.0
101 287.0
102 219.0
103 302.0
104 117.0
105 0.0
106 0.0
107 0.0
108 0.0
109 0.0
110 0.0
111 0.0
112 0.0
113 0.0
114 0.0
115 0.0
116 0.0
117 0.0
118 0.0
119 0.0
120 0.0
