0 493.0
1 534.0
2 466.0
3 501.0
4 454.0
5 548.0
6 479.0
7 479.0
8 441.0
9 481.0
10 444.0
11 393.0
12 494.0
13 597.0
14 526.0
15 507.0
16 424.0
17 533.0
18 636.0
19 559.0
20 487.0
21 443.0
22 599.0
23 476.0
24 441.0
25 565.0
26 581.0
27 512.0
28 382.0
29 458.0
30 599.0
31 495.0
32 507.0
33 476.0
34 562.0
35 472.0
36 528.0
37 540.0
38 526.0
39 401.0
40 498.0
41 483.0
42 498.0
43 537.0
44 540.0
45 610.0
46 470.0
47 462.0
48 395.0
49 524.0
50 514.0
51 526.0
52 438.0
53 545.0
54 526.0
55 416.0
56 524.0
57 462.0
58 408.0
59 623.0
60 574.0
61 509.0
62 592.0
63 447.0
64 535.0
65 472.0
66 509.0
67 530.0
68 510.0
69 584.0
70 504.0
71 490.0
72 556.0
73 498.0
74 532.0
75 481.0
76 550.0
77 590.0
78 439.0
79 583.0
80 450.0
81 632.0
82 519.0
83 481.0
84 444.0
85 515.0
86 437.0
87 531.0
88 402.0
89 399.0
90 484.0
91 608.0
92 579.0
93 483.0
94 370.0
95 470.0
96 419.0
97 503.0
98 422.0
99 513.0
100 607.0
101 437.0
102 487.0
103 496.0
104 403.0
105 552.0
106 505.0
107 535.0
108 527.0
109 458.0
110 622.0
111 434.0
112 546.0
113 536.0
114 530.0
115 542.0
116 509.0
117 577.0
118 645.0
119 542.0
120 477.0
