0 1203.0
1 1196.0
2 1239.0
3 1262.0
4 1182.0
5 1185.0
6 1106.0
7 1254.0
8 1132.0
9 1224.0
10 1240.0
11 1212.0
12 1176.0
13 1240.0
14 1223.0
15 1193.0
16 1236.0
17 1186.0
18 1270.0
19 1137.0
20 1296.0
21 1175.0
22 1261.0
23 1195.0
24 1212.0
25 1172.0
26 1174.0
27 1279.0
28 1238.0
29 1147.0
30 1213.0
31 1244.0
32 1227.0
33 1182.0
34 1154.0
35 1310.0
36 1266.0
37 1203.0
38 1219.0
39 1273.0
40 1267.0
41 1221.0
42 1191.0
43 1213.0
44 1255.0
45 1177.0
46 1223.0
47 1133.0
48 1286.0
49 1255.0
50 1224.0
51 1275.0
52 1290.0
53 1234.0
54 1222.0
55 1249.0
56 1248.0
57 1207.0
58 1188.0
59 1237.0
60 1178.0
61 1175.0
62 1190.0
63 1195.0
64 1256.0
65 1271.0
66 1176.0
67 1242.0
68 1156.0
69 1264.0
70 1130.0
71 1209.0
72 1235.0
73 1213.0
74 1257.0
75 1208.0
76 1168.0
77 1227.0
78 1273.0
79 1241.0
80 1261.0
81 1189.0
82 1217.0
83 1242.0
84 1291.0
85 1299.0
86 1190.0
87 1311.0
88 1292.0
89 1237.0
90 1264.0
91 403.0
92 0.0
93 0.0
94 0.0
95 0.0
96 0.0
97 0.0
98 0.0
99 0.0
100 0.0
101 0.0
102 0.0
103 0.0
104 0.0
105 0.0
106 0.0
107 0.0
108 0.0
109 0.0
110 0.0
111 0.0
112 0.0
113 0.0
114 0.0
115 0.0
116 0.0
117 0.0
118 0.0
119 0.0
120 0.0
