0 640.0
1 619.0
2 483.0
3 586.0
4 554.0
5 594.0
6 570.0
7 571.0
8 494.0
9 537.0
10 556.0
11 509.0
12 775.0
13 655.0
14 541.0
15 550.0
16 563.0
17 688.0
18 596.0
19 625.0
20 562.0
21 572.0
22 577.0
23 580.0
24 553.0
25 660.0
26 629.0
27 663.0
28 572.0
29 600.0
30 640.0
31 610.0
32 626.0
33 674.0
34 609.0
35 665.0
36 543.0
37 637.0
38 612.0
39 625.0
40 616.0
41 515.0
42 539.0
43 558.0
44 537.0
45 599.0
46 555.0
47 558.0
48 528.0
49 609.0
50 639.0
51 534.0
52 604.0
53 674.0
54 663.0
55 534.0
56 520.0
57 623.0
58 638.0
59 623.0
60 583.0
61 627.0
62 488.0
63 595.0
64 550.0
65 595.0
66 660.0
67 682.0
68 562.0
69 690.0
70 649.0
71 764.0
72 636.0
73 469.0
74 507.0
75 622.0
76 742.0
77 558.0
78 651.0
79 641.0
80 645.0
81 651.0
82 618.0
83 590.0
84 652.0
85 616.0
86 654.0
87 630.0
88 648.0
89 644.0
90 630.0
91 526.0
92 613.0
93 342.0
94 0.0
95 0.0
96 0.0
97 0.0
98 0.0
99 0.0
100 0.0
101 0.0
102 0.0
103 0.0
104 0.0
105 0.0
106 0.0
107 0.0
108 0.0
109 0.0
110 0.0
111 0.0
112 0.0
113 0.0
114 0.0
115 0.0
116 0.0
117 0.0
118 0.0
119 0.0
120 0.0
