0 217.0
1 261.0
2 210.0
3 223.0
4 238.0
5 200.0
6 199.0
7 275.0
8 293.0
9 241.0
10 162.0
11 278.0
12 170.0
13 227.0
14 245.0
15 219.0
16 267.0
17 234.0
18 244.0
19 212.0
20 206.0
21 200.0
22 227.0
23 195.0
24 192.0
25 160.0
26 197.0
27 278.0
28 230.0
29 231.0
30 237.0
31 223.0
32 238.0
33 278.0
34 255.0
35 220.0
36 215.0
37 248.0
38 246.0
39 265.0
40 208.0
41 260.0
42 234.0
43 293.0
44 206.0
45 266.0
46 289.0
47 254.0
48 247.0
49 279.0
50 178.0
51 215.0
52 243.0
53 202.0
54 182.0
55 248.0
56 249.0
57 230.0
58 216.0
59 224.0
60 229.0
61 218.0
62 214.0
63 238.0
64 233.0
65 202.0
66 185.0
67 256.0
68 265.0
69 256.0
70 284.0
71 240.0
72 246.0
73 285.0
74 203.0
75 245.0
76 286.0
77 294.0
78 232.0
79 213.0
80 272.0
81 283.0
82 188.0
83 229.0
84 212.0
85 184.0
86 245.0
87 233.0
88 243.0
89 252.0
90 261.0
91 203.0
92 258.0
93 175.0
94 153.0
95 0.0
96 0.0
97 0.0
98 0.0
99 0.0
100 0.0
101 0.0
102 0.0
103 0.0
104 0.0
105 0.0
106 0.0
107 0.0
108 0.0
109 0.0
110 0.0
111 0.0
112 0.0
113 0.0
114 0.0
115 0.0
116 0.0
117 0.0
118 0.0
119 0.0
120 0.0
