0 628.0
1 629.0
2 696.0
3 724.0
4 570.0
5 620.0
6 614.0
7 610.0
8 721.0
9 648.0
10 617.0
11 625.0
12 653.0
13 689.0
14 660.0
15 714.0
16 738.0
17 665.0
18 762.0
19 779.0
20 735.0
21 714.0
22 783.0
23 646.0
24 724.0
25 722.0
26 626.0
27 731.0
28 675.0
29 620.0
30 724.0
31 780.0
32 622.0
33 754.0
34 719.0
35 718.0
36 723.0
37 723.0
38 659.0
39 694.0
40 704.0
41 651.0
42 709.0
43 761.0
44 725.0
45 735.0
46 708.0
47 740.0
48 708.0
49 685.0
50 755.0
51 793.0
52 698.0
53 648.0
54 740.0
55 719.0
56 726.0
57 654.0
58 719.0
59 778.0
60 761.0
61 651.0
62 631.0
63 763.0
64 714.0
65 717.0
66 671.0
67 700.0
68 762.0
69 722.0
70 684.0
71 728.0
72 732.0
73 786.0
74 694.0
75 743.0
76 737.0
77 725.0
78 793.0
79 679.0
80 753.0
81 775.0
82 704.0
83 783.0
84 695.0
85 762.0
86 781.0
87 751.0
88 744.0
89 699.0
90 638.0
91 568.0
92 0.0
93 0.0
94 0.0
95 0.0
96 0.0
97 0.0
98 0.0
99 0.0
100 0.0
101 0.0
102 0.0
103 0.0
104 0.0
105 0.0
106 0.0
107 0.0
108 0.0
109 0.0
110 0.0
111 0.0
112 0.0
113 0.0
114 0.0
115 0.0
116 0.0
117 0.0
118 0.0
119 0.0
120 0.0
