0 307.0
1 330.0
2 370.0
3 351.0
4 337.0
5 338.0
6 389.0
7 389.0
8 326.0
9 320.0
10 332.0
11 359.0
12 333.0
13 310.0
14 336.0
15 360.0
16 407.0
17 390.0
18 305.0
19 355.0
20 329.0
21 457.0
22 345.0
23 370.0
24 387.0
25 433.0
26 302.0
27 343.0
28 361.0
29 395.0
30 342.0
31 365.0
32 378.0
33 348.0
34 289.0
35 366.0
36 379.0
37 348.0
38 333.0
39 411.0
40 394.0
41 283.0
42 315.0
43 354.0
44 301.0
45 342.0
46 369.0
47 336.0
48 315.0
49 378.0
50 316.0
51 412.0
52 327.0
53 356.0
54 371.0
55 381.0
56 365.0
57 393.0
58 325.0
59 304.0
60 381.0
61 348.0
62 323.0
63 354.0
64 383.0
65 397.0
66 333.0
67 342.0
68 388.0
69 370.0
70 311.0
71 342.0
72 391.0
73 351.0
74 349.0
75 380.0
76 317.0
77 345.0
78 393.0
79 360.0
80 345.0
81 348.0
82 369.0
83 401.0
84 366.0
85 346.0
86 324.0
87 341.0
88 366.0
89 339.0
90 376.0
91 336.0
92 348.0
93 75.0
94 0.0
95 0.0
96 0.0
97 0.0
98 0.0
99 0.0
100 0.0
101 0.0
102 0.0
103 0.0
104 0.0
105 0.0
106 0.0
107 0.0
108 0.0
109 0.0
110 0.0
111 0.0
112 0.0
113 0.0
114 0.0
115 0.0
116 0.0
117 0.0
118 0.0
119 0.0
120 0.0
