0 248.0
1 328.0
2 298.0
3 311.0
4 256.0
5 273.0
6 240.0
7 190.0
8 277.0
9 338.0
10 226.0
11 298.0
12 191.0
13 235.0
14 305.0
15 258.0
16 260.0
17 292.0
18 241.0
19 223.0
20 297.0
21 293.0
22 252.0
23 292.0
24 239.0
25 263.0
26 286.0
27 304.0
28 247.0
29 254.0
30 301.0
31 308.0
32 254.0
33 282.0
34 329.0
35 301.0
36 343.0
37 292.0
38 234.0
39 358.0
40 279.0
41 295.0
42 300.0
43 320.0
44 183.0
45 258.0
46 240.0
47 205.0
48 306.0
49 256.0
50 265.0
51 243.0
52 368.0
53 283.0
54 248.0
55 252.0
56 280.0
57 271.0
58 321.0
59 253.0
60 241.0
61 358.0
62 305.0
63 304.0
64 269.0
65 325.0
66 305.0
67 314.0
68 323.0
69 281.0
70 282.0
71 271.0
72 302.0
73 268.0
74 226.0
75 367.0
76 342.0
77 275.0
78 281.0
79 328.0
80 261.0
81 202.0
82 314.0
83 278.0
84 285.0
85 211.0
86 304.0
87 289.0
88 287.0
89 280.0
90 330.0
91 257.0
92 238.0
93 286.0
94 275.0
95 316.0
96 255.0
97 370.0
98 309.0
99 228.0
100 282.0
101 257.0
102 310.0
103 267.0
104 273.0
105 230.0
106 305.0
107 373.0
108 280.0
109 290.0
110 326.0
111 315.0
112 291.0
113 285.0
114 281.0
115 343.0
116 267.0
117 345.0
118 300.0
119 276.0
120 261.0
