0 310.0
1 306.0
2 362.0
3 377.0
4 385.0
5 352.0
6 342.0
7 423.0
8 388.0
9 377.0
10 359.0
11 353.0
12 323.0
13 369.0
14 378.0
15 415.0
16 398.0
17 367.0
18 360.0
19 369.0
20 303.0
21 417.0
22 413.0
23 405.0
24 337.0
25 386.0
26 361.0
27 374.0
28 365.0
29 324.0
30 311.0
31 341.0
32 383.0
33 357.0
34 401.0
35 371.0
36 341.0
37 364.0
38 360.0
39 372.0
40 367.0
41 385.0
42 337.0
43 382.0
44 371.0
45 373.0
46 403.0
47 370.0
48 346.0
49 412.0
50 418.0
51 434.0
52 376.0
53 380.0
54 388.0
55 301.0
56 378.0
57 418.0
58 406.0
59 375.0
60 427.0
61 420.0
62 388.0
63 289.0
64 302.0
65 368.0
66 359.0
67 308.0
68 383.0
69 397.0
70 343.0
71 350.0
72 338.0
73 373.0
74 379.0
75 398.0
76 396.0
77 407.0
78 402.0
79 353.0
80 441.0
81 361.0
82 376.0
83 394.0
84 373.0
85 344.0
86 397.0
87 385.0
88 445.0
89 404.0
90 328.0
91 357.0
92 360.0
93 341.0
94 382.0
95 440.0
96 428.0
97 396.0
98 375.0
99 349.0
100 345.0
101 322.0
102 372.0
103 417.0
104 386.0
105 360.0
106 354.0
107 340.0
108 370.0
109 327.0
110 375.0
111 366.0
112 365.0
113 356.0
114 383.0
115 359.0
116 369.0
117 376.0
118 93.0
119 0.0
120 0.0
