0 416.0
1 412.0
2 374.0
3 377.0
4 365.0
5 386.0
6 371.0
7 401.0
8 386.0
9 298.0
10 378.0
11 343.0
12 362.0
13 335.0
14 376.0
15 323.0
16 340.0
17 377.0
18 379.0
19 333.0
20 334.0
21 346.0
22 345.0
23 352.0
24 395.0
25 428.0
26 386.0
27 323.0
28 309.0
29 347.0
30 396.0
31 363.0
32 385.0
33 407.0
34 414.0
35 351.0
36 407.0
37 374.0
38 422.0
39 341.0
40 332.0
41 346.0
42 403.0
43 389.0
44 317.0
45 404.0
46 402.0
47 302.0
48 414.0
49 382.0
50 420.0
51 381.0
52 332.0
53 358.0
54 365.0
55 341.0
56 393.0
57 354.0
58 371.0
59 347.0
60 281.0
61 358.0
62 272.0
63 413.0
64 355.0
65 412.0
66 348.0
67 366.0
68 375.0
69 392.0
70 386.0
71 360.0
72 375.0
73 367.0
74 319.0
75 346.0
76 405.0
77 370.0
78 354.0
79 321.0
80 342.0
81 346.0
82 410.0
83 414.0
84 392.0
85 370.0
86 355.0
87 407.0
88 387.0
89 342.0
90 418.0
91 421.0
92 364.0
93 385.0
94 394.0
95 345.0
96 340.0
97 393.0
98 336.0
99 398.0
100 410.0
101 352.0
102 358.0
103 342.0
104 356.0
105 343.0
106 390.0
107 373.0
108 288.0
109 354.0
110 391.0
111 403.0
112 393.0
113 353.0
114 427.0
115 389.0
116 346.0
117 292.0
118 399.0
119 399.0
120 371.0
