0 476.0
1 653.0
2 426.0
3 671.0
4 524.0
5 490.0
6 511.0
7 561.0
8 509.0
9 587.0
10 622.0
11 491.0
12 398.0
13 593.0
14 619.0
15 489.0
16 521.0
17 658.0
18 621.0
19 544.0
20 572.0
21 619.0
22 702.0
23 536.0
24 572.0
25 474.0
26 555.0
27 593.0
28 575.0
29 590.0
30 597.0
31 579.0
32 546.0
33 624.0
34 556.0
35 464.0
36 539.0
37 514.0
38 573.0
39 511.0
40 468.0
41 512.0
42 602.0
43 502.0
44 649.0
45 424.0
46 506.0
47 593.0
48 641.0
49 649.0
50 528.0
51 761.0
52 652.0
53 634.0
54 443.0
55 630.0
56 552.0
57 691.0
58 584.0
59 484.0
60 672.0
61 663.0
62 573.0
63 462.0
64 602.0
65 556.0
66 598.0
67 439.0
68 509.0
69 432.0
70 517.0
71 554.0
72 643.0
73 541.0
74 539.0
75 548.0
76 565.0
77 481.0
78 476.0
79 507.0
80 637.0
81 455.0
82 599.0
83 573.0
84 419.0
85 564.0
86 621.0
87 527.0
88 529.0
89 513.0
90 576.0
91 524.0
92 551.0
93 665.0
94 431.0
95 616.0
96 588.0
97 585.0
98 603.0
99 592.0
100 648.0
101 690.0
102 501.0
103 428.0
104 0.0
105 0.0
106 0.0
107 0.0
108 0.0
109 0.0
110 0.0
111 0.0
112 0.0
113 0.0
114 0.0
115 0.0
116 0.0
117 0.0
118 0.0
119 0.0
120 0.0
