0 1449.0
1 1498.0
2 1573.0
3 1556.0
4 1547.0
5 1550.0
6 1556.0
7 1488.0
8 1539.0
9 1551.0
10 1527.0
11 1466.0
12 1553.0
13 1497.0
14 1610.0
15 1562.0
16 1615.0
17 1532.0
18 1479.0
19 1562.0
20 1502.0
21 1486.0
22 1581.0
23 1635.0
24 1444.0
25 1573.0
26 1522.0
27 1461.0
28 1550.0
29 1578.0
30 1592.0
31 1531.0
32 1569.0
33 1503.0
34 1517.0
35 1639.0
36 1608.0
37 1545.0
38 1649.0
39 1449.0
40 1511.0
41 1546.0
42 1664.0
43 1498.0
44 1448.0
45 1633.0
46 1581.0
47 1546.0
48 1560.0
49 1546.0
50 1517.0
51 1528.0
52 1573.0
53 1571.0
54 1475.0
55 1606.0
56 1555.0
57 1558.0
58 1483.0
59 1590.0
60 1565.0
61 1624.0
62 1566.0
63 1633.0
64 1490.0
65 1619.0
66 1613.0
67 1566.0
68 1598.0
69 1666.0
70 1573.0
71 1494.0
72 1595.0
73 1550.0
74 1502.0
75 1633.0
76 1510.0
77 1569.0
78 1464.0
79 1537.0
80 1573.0
81 1530.0
82 1582.0
83 1639.0
84 1555.0
85 1702.0
86 1412.0
87 1536.0
88 1499.0
89 1689.0
90 1593.0
91 933.0
92 0.0
93 0.0
94 0.0
95 0.0
96 0.0
97 0.0
98 0.0
99 0.0
100 0.0
101 0.0
102 0.0
103 0.0
104 0.0
105 0.0
106 0.0
107 0.0
108 0.0
109 0.0
110 0.0
111 0.0
112 0.0
113 0.0
114 0.0
115 0.0
116 0.0
117 0.0
118 0.0
119 0.0
120 0.0
