0 336.0
1 319.0
2 298.0
3 263.0
4 261.0
5 306.0
6 294.0
7 326.0
8 259.0
9 212.0
10 261.0
11 219.0
12 290.0
13 285.0
14 273.0
15 311.0
16 344.0
17 223.0
18 212.0
19 203.0
20 273.0
21 229.0
22 185.0
23 237.0
24 303.0
25 351.0
26 240.0
27 271.0
28 250.0
29 308.0
30 289.0
31 326.0
32 309.0
33 269.0
34 275.0
35 281.0
36 307.0
37 274.0
38 304.0
39 270.0
40 359.0
41 242.0
42 158.0
43 299.0
44 316.0
45 326.0
46 278.0
47 239.0
48 266.0
49 306.0
50 234.0
51 257.0
52 315.0
53 314.0
54 285.0
55 365.0
56 306.0
57 308.0
58 331.0
59 282.0
60 274.0
61 287.0
62 287.0
63 338.0
64 297.0
65 284.0
66 296.0
67 258.0
68 208.0
69 221.0
70 288.0
71 336.0
72 233.0
73 257.0
74 261.0
75 297.0
76 352.0
77 264.0
78 245.0
79 287.0
80 255.0
81 313.0
82 270.0
83 210.0
84 255.0
85 254.0
86 219.0
87 323.0
88 195.0
89 276.0
90 318.0
91 274.0
92 244.0
93 162.0
94 318.0
95 322.0
96 285.0
97 292.0
98 288.0
99 222.0
100 276.0
101 288.0
102 336.0
103 269.0
104 0.0
105 0.0
106 0.0
107 0.0
108 0.0
109 0.0
110 0.0
111 0.0
112 0.0
113 0.0
114 0.0
115 0.0
116 0.0
117 0.0
118 0.0
119 0.0
120 0.0
