0 368.0
1 407.0
2 455.0
3 414.0
4 419.0
5 474.0
6 433.0
7 405.0
8 432.0
9 408.0
10 446.0
11 414.0
12 412.0
13 427.0
14 482.0
15 405.0
16 443.0
17 404.0
18 414.0
19 447.0
20 415.0
21 471.0
22 447.0
23 458.0
24 491.0
25 419.0
26 441.0
27 351.0
28 459.0
29 409.0
30 480.0
31 397.0
32 443.0
33 418.0
34 414.0
35 459.0
36 427.0
37 466.0
38 452.0
39 381.0
40 387.0
41 403.0
42 444.0
43 409.0
44 419.0
45 439.0
46 457.0
47 470.0
48 540.0
49 418.0
50 476.0
51 416.0
52 468.0
53 505.0
54 400.0
55 470.0
56 427.0
57 489.0
58 418.0
59 445.0
60 401.0
61 412.0
62 451.0
63 445.0
64 416.0
65 454.0
66 388.0
67 387.0
68 392.0
69 430.0
70 419.0
71 439.0
72 474.0
73 440.0
74 480.0
75 420.0
76 408.0
77 380.0
78 465.0
79 435.0
80 514.0
81 456.0
82 416.0
83 407.0
84 369.0
85 470.0
86 442.0
87 417.0
88 441.0
89 384.0
90 429.0
91 284.0
92 0.0
93 0.0
94 0.0
95 0.0
96 0.0
97 0.0
98 0.0
99 0.0
100 0.0
101 0.0
102 0.0
103 0.0
104 0.0
105 0.0
106 0.0
107 0.0
108 0.0
109 0.0
110 0.0
111 0.0
112 0.0
113 0.0
114 0.0
115 0.0
116 0.0
117 0.0
118 0.0
119 0.0
120 0.0
