0 427.0
1 448.0
2 458.0
3 476.0
4 628.0
5 691.0
6 522.0
7 520.0
8 546.0
9 584.0
10 582.0
11 525.0
12 483.0
13 588.0
14 681.0
15 573.0
16 635.0
17 579.0
18 486.0
19 564.0
20 497.0
21 494.0
22 612.0
23 544.0
24 673.0
25 491.0
26 687.0
27 512.0
28 570.0
29 499.0
30 503.0
31 475.0
32 566.0
33 454.0
34 458.0
35 577.0
36 498.0
37 518.0
38 489.0
39 563.0
40 567.0
41 566.0
42 564.0
43 733.0
44 573.0
45 516.0
46 535.0
47 673.0
48 528.0
49 669.0
50 513.0
51 691.0
52 630.0
53 505.0
54 396.0
55 542.0
56 549.0
57 606.0
58 430.0
59 506.0
60 453.0
61 589.0
62 547.0
63 536.0
64 467.0
65 534.0
66 593.0
67 602.0
68 533.0
69 655.0
70 526.0
71 558.0
72 560.0
73 641.0
74 657.0
75 603.0
76 436.0
77 463.0
78 588.0
79 617.0
80 715.0
81 489.0
82 521.0
83 628.0
84 689.0
85 563.0
86 640.0
87 479.0
88 609.0
89 621.0
90 561.0
91 490.0
92 755.0
93 485.0
94 562.0
95 615.0
96 488.0
97 601.0
98 577.0
99 473.0
100 481.0
101 609.0
102 648.0
103 606.0
104 508.0
105 506.0
106 332.0
107 0.0
108 0.0
109 0.0
110 0.0
111 0.0
112 0.0
113 0.0
114 0.0
115 0.0
116 0.0
117 0.0
118 0.0
119 0.0
120 0.0
