0 451.0
1 404.0
2 457.0
3 423.0
4 658.0
5 601.0
6 511.0
7 532.0
8 514.0
9 450.0
10 567.0
11 490.0
12 503.0
13 468.0
14 575.0
15 735.0
16 449.0
17 574.0
18 577.0
19 522.0
20 496.0
21 415.0
22 591.0
23 557.0
24 578.0
25 558.0
26 589.0
27 660.0
28 566.0
29 395.0
30 592.0
31 563.0
32 468.0
33 482.0
34 543.0
35 535.0
36 571.0
37 427.0
38 493.0
39 534.0
40 563.0
41 507.0
42 581.0
43 479.0
44 679.0
45 709.0
46 481.0
47 633.0
48 540.0
49 615.0
50 651.0
51 577.0
52 559.0
53 610.0
54 559.0
55 509.0
56 545.0
57 547.0
58 498.0
59 514.0
60 585.0
61 524.0
62 607.0
63 472.0
64 531.0
65 533.0
66 518.0
67 589.0
68 502.0
69 508.0
70 601.0
71 569.0
72 567.0
73 543.0
74 530.0
75 594.0
76 625.0
77 505.0
78 477.0
79 519.0
80 472.0
81 711.0
82 601.0
83 607.0
84 502.0
85 685.0
86 549.0
87 600.0
88 588.0
89 479.0
90 548.0
91 626.0
92 487.0
93 520.0
94 681.0
95 582.0
96 592.0
97 530.0
98 403.0
99 575.0
100 450.0
101 542.0
102 529.0
103 504.0
104 578.0
105 538.0
106 511.0
107 480.0
108 501.0
109 133.0
110 0.0
111 0.0
112 0.0
113 0.0
114 0.0
115 0.0
116 0.0
117 0.0
118 0.0
119 0.0
120 0.0
