0 1752.0
1 1904.0
2 1895.0
3 1787.0
4 1781.0
5 1771.0
6 1935.0
7 1864.0
8 1771.0
9 1728.0
10 1832.0
11 1806.0
12 1834.0
13 1849.0
14 1762.0
15 1812.0
16 1847.0
17 1775.0
18 1826.0
19 1855.0
20 1750.0
21 1827.0
22 1891.0
23 1905.0
24 1793.0
25 1913.0
26 1839.0
27 1733.0
28 1868.0
29 1757.0
30 1839.0
31 1859.0
32 1767.0
33 1829.0
34 1876.0
35 1766.0
36 1873.0
37 1843.0
38 1876.0
39 1786.0
40 1805.0
41 1889.0
42 1874.0
43 1817.0
44 1848.0
45 1786.0
46 1815.0
47 1850.0
48 1842.0
49 1886.0
50 1802.0
51 1836.0
52 1836.0
53 1902.0
54 1788.0
55 1873.0
56 1843.0
57 1905.0
58 1867.0
59 1800.0
60 1872.0
61 1986.0
62 1806.0
63 1846.0
64 1748.0
65 1837.0
66 1866.0
67 1871.0
68 1823.0
69 1805.0
70 1817.0
71 1807.0
72 1879.0
73 1785.0
74 1881.0
75 1797.0
76 1855.0
77 1840.0
78 1735.0
79 1813.0
80 2002.0
81 1799.0
82 1748.0
83 1901.0
84 1789.0
85 1894.0
86 1854.0
87 1785.0
88 1733.0
89 1852.0
90 1784.0
91 1785.0
92 1877.0
93 1782.0
94 1694.0
95 1849.0
96 1845.0
97 1873.0
98 121.0
99 0.0
100 0.0
101 0.0
102 0.0
103 0.0
104 0.0
105 0.0
106 0.0
107 0.0
108 0.0
109 0.0
110 0.0
111 0.0
112 0.0
113 0.0
114 0.0
115 0.0
116 0.0
117 0.0
118 0.0
119 0.0
120 0.0
