0 113.0
1 139.0
2 165.0
3 173.0
4 137.0
5 148.0
6 165.0
7 213.0
8 121.0
9 130.0
10 143.0
11 144.0
12 192.0
13 185.0
14 196.0
15 158.0
16 204.0
17 171.0
18 219.0
19 123.0
20 145.0
21 212.0
22 141.0
23 188.0
24 193.0
25 187.0
26 205.0
27 157.0
28 121.0
29 163.0
30 143.0
31 167.0
32 239.0
33 244.0
34 138.0
35 192.0
36 251.0
37 182.0
38 187.0
39 244.0
40 276.0
41 247.0
42 230.0
43 174.0
44 246.0
45 133.0
46 178.0
47 205.0
48 136.0
49 173.0
50 137.0
51 141.0
52 197.0
53 163.0
54 240.0
55 201.0
56 172.0
57 209.0
58 152.0
59 230.0
60 182.0
61 193.0
62 227.0
63 155.0
64 179.0
65 195.0
66 117.0
67 241.0
68 199.0
69 156.0
70 241.0
71 180.0
72 172.0
73 194.0
74 143.0
75 196.0
76 182.0
77 192.0
78 197.0
79 213.0
80 258.0
81 186.0
82 170.0
83 163.0
84 215.0
85 266.0
86 199.0
87 179.0
88 219.0
89 203.0
90 177.0
91 106.0
92 150.0
93 201.0
94 185.0
95 189.0
96 159.0
97 188.0
98 146.0
99 204.0
100 235.0
101 124.0
102 191.0
103 208.0
104 218.0
105 157.0
106 210.0
107 208.0
108 172.0
109 216.0
110 199.0
111 134.0
112 178.0
113 229.0
114 143.0
115 140.0
116 217.0
117 207.0
118 155.0
119 226.0
120 179.0
