0 288.0
1 302.0
2 261.0
3 291.0
4 264.0
5 279.0
6 337.0
7 285.0
8 325.0
9 258.0
10 276.0
11 290.0
12 313.0
13 239.0
14 278.0
15 266.0
16 275.0
17 317.0
18 265.0
19 229.0
20 283.0
21 237.0
22 286.0
23 288.0
24 262.0
25 253.0
26 302.0
27 332.0
28 273.0
29 228.0
30 295.0
31 318.0
32 295.0
33 288.0
34 312.0
35 245.0
36 310.0
37 255.0
38 293.0
39 296.0
40 290.0
41 239.0
42 265.0
43 249.0
44 225.0
45 285.0
46 280.0
47 237.0
48 349.0
49 322.0
50 235.0
51 288.0
52 284.0
53 299.0
54 286.0
55 284.0
56 307.0
57 265.0
58 196.0
59 212.0
60 295.0
61 314.0
62 219.0
63 261.0
64 290.0
65 295.0
66 244.0
67 335.0
68 279.0
69 304.0
70 282.0
71 305.0
72 314.0
73 348.0
74 271.0
75 304.0
76 215.0
77 334.0
78 280.0
79 243.0
80 289.0
81 275.0
82 231.0
83 291.0
84 297.0
85 256.0
86 261.0
87 315.0
88 235.0
89 242.0
90 275.0
91 265.0
92 363.0
93 286.0
94 249.0
95 278.0
96 208.0
97 301.0
98 277.0
99 299.0
100 324.0
101 277.0
102 320.0
103 287.0
104 323.0
105 303.0
106 300.0
107 308.0
108 328.0
109 246.0
110 263.0
111 322.0
112 190.0
113 282.0
114 329.0
115 313.0
116 305.0
117 230.0
118 294.0
119 270.0
120 0.0
