0 1607.0
1 1312.0
2 1600.0
3 1572.0
4 1596.0
5 1546.0
6 1595.0
7 1577.0
8 1504.0
9 1538.0
10 1504.0
11 1597.0
12 1505.0
13 1607.0
14 1590.0
15 1495.0
16 1621.0
17 1467.0
18 1609.0
19 1557.0
20 1491.0
21 1597.0
22 1479.0
23 1597.0
24 1487.0
25 1558.0
26 1553.0
27 1585.0
28 1532.0
29 1432.0
30 1578.0
31 1540.0
32 1539.0
33 1460.0
34 1519.0
35 1522.0
36 1448.0
37 1589.0
38 1468.0
39 1499.0
40 1486.0
41 1550.0
42 1519.0
43 1501.0
44 1538.0
45 1604.0
46 1564.0
47 1562.0
48 1559.0
49 1461.0
50 1597.0
51 1539.0
52 1604.0
53 1503.0
54 1584.0
55 1544.0
56 1562.0
57 1524.0
58 1553.0
59 1623.0
60 1538.0
61 1524.0
62 1524.0
63 1553.0
64 1614.0
65 1516.0
66 1577.0
67 1560.0
68 1548.0
69 1581.0
70 1510.0
71 1516.0
72 1474.0
73 1579.0
74 1518.0
75 1549.0
76 1528.0
77 1462.0
78 1605.0
79 1562.0
80 1589.0
81 1581.0
82 1591.0
83 1572.0
84 1585.0
85 1592.0
86 1546.0
87 1607.0
88 1523.0
89 1625.0
90 1568.0
91 1576.0
92 1113.0
93 0.0
94 0.0
95 0.0
96 0.0
97 0.0
98 0.0
99 0.0
100 0.0
101 0.0
102 0.0
103 0.0
104 0.0
105 0.0
106 0.0
107 0.0
108 0.0
109 0.0
110 0.0
111 0.0
112 0.0
113 0.0
114 0.0
115 0.0
116 0.0
117 0.0
118 0.0
119 0.0
120 0.0
