0 330.0
1 321.0
2 270.0
3 252.0
4 323.0
5 321.0
6 317.0
7 343.0
8 325.0
9 406.0
10 380.0
11 322.0
12 385.0
13 304.0
14 392.0
15 358.0
16 337.0
17 354.0
18 356.0
19 375.0
20 347.0
21 387.0
22 308.0
23 337.0
24 395.0
25 337.0
26 376.0
27 305.0
28 320.0
29 295.0
30 419.0
31 373.0
32 334.0
33 295.0
34 328.0
35 370.0
36 362.0
37 418.0
38 328.0
39 349.0
40 348.0
41 300.0
42 301.0
43 338.0
44 331.0
45 346.0
46 349.0
47 385.0
48 375.0
49 297.0
50 299.0
51 276.0
52 323.0
53 335.0
54 334.0
55 400.0
56 340.0
57 349.0
58 350.0
59 367.0
60 350.0
61 348.0
62 372.0
63 383.0
64 406.0
65 381.0
66 308.0
67 332.0
68 401.0
69 356.0
70 363.0
71 393.0
72 381.0
73 338.0
74 310.0
75 345.0
76 390.0
77 334.0
78 398.0
79 395.0
80 345.0
81 353.0
82 336.0
83 401.0
84 373.0
85 348.0
86 275.0
87 367.0
88 300.0
89 344.0
90 378.0
91 323.0
92 352.0
93 313.0
94 307.0
95 312.0
96 370.0
97 405.0
98 343.0
99 308.0
100 245.0
101 0.0
102 0.0
103 0.0
104 0.0
105 0.0
106 0.0
107 0.0
108 0.0
109 0.0
110 0.0
111 0.0
112 0.0
113 0.0
114 0.0
115 0.0
116 0.0
117 0.0
118 0.0
119 0.0
120 0.0
