0 521.0
1 547.0
2 612.0
3 509.0
4 593.0
5 636.0
6 557.0
7 600.0
8 564.0
9 532.0
10 535.0
11 486.0
12 577.0
13 496.0
14 580.0
15 556.0
16 574.0
17 665.0
18 569.0
19 553.0
20 650.0
21 557.0
22 583.0
23 571.0
24 515.0
25 517.0
26 618.0
27 531.0
28 597.0
29 561.0
30 597.0
31 592.0
32 549.0
33 516.0
34 602.0
35 542.0
36 556.0
37 644.0
38 685.0
39 580.0
40 523.0
41 527.0
42 506.0
43 542.0
44 504.0
45 535.0
46 645.0
47 582.0
48 562.0
49 615.0
50 532.0
51 583.0
52 582.0
53 558.0
54 615.0
55 580.0
56 541.0
57 600.0
58 521.0
59 626.0
60 504.0
61 581.0
62 646.0
63 511.0
64 531.0
65 647.0
66 599.0
67 625.0
68 572.0
69 533.0
70 606.0
71 605.0
72 540.0
73 514.0
74 543.0
75 466.0
76 655.0
77 559.0
78 566.0
79 678.0
80 449.0
81 489.0
82 526.0
83 539.0
84 527.0
85 538.0
86 592.0
87 505.0
88 583.0
89 586.0
90 542.0
91 618.0
92 461.0
93 52.0
94 0.0
95 0.0
96 0.0
97 0.0
98 0.0
99 0.0
100 0.0
101 0.0
102 0.0
103 0.0
104 0.0
105 0.0
106 0.0
107 0.0
108 0.0
109 0.0
110 0.0
111 0.0
112 0.0
113 0.0
114 0.0
115 0.0
116 0.0
117 0.0
118 0.0
119 0.0
120 0.0
