0 525.0
1 530.0
2 640.0
3 596.0
4 565.0
5 514.0
6 455.0
7 662.0
8 563.0
9 528.0
10 469.0
11 491.0
12 519.0
13 473.0
14 510.0
15 416.0
16 508.0
17 568.0
18 586.0
19 610.0
20 550.0
21 620.0
22 579.0
23 575.0
24 619.0
25 496.0
26 532.0
27 542.0
28 572.0
29 555.0
30 534.0
31 569.0
32 553.0
33 528.0
34 565.0
35 580.0
36 531.0
37 595.0
38 550.0
39 652.0
40 502.0
41 554.0
42 468.0
43 518.0
44 491.0
45 585.0
46 559.0
47 624.0
48 539.0
49 576.0
50 529.0
51 552.0
52 558.0
53 657.0
54 466.0
55 442.0
56 563.0
57 465.0
58 506.0
59 661.0
60 528.0
61 622.0
62 580.0
63 562.0
64 463.0
65 578.0
66 560.0
67 522.0
68 488.0
69 612.0
70 599.0
71 643.0
72 553.0
73 526.0
74 527.0
75 467.0
76 620.0
77 621.0
78 563.0
79 563.0
80 559.0
81 451.0
82 568.0
83 604.0
84 567.0
85 555.0
86 566.0
87 540.0
88 584.0
89 570.0
90 534.0
91 513.0
92 141.0
93 0.0
94 0.0
95 0.0
96 0.0
97 0.0
98 0.0
99 0.0
100 0.0
101 0.0
102 0.0
103 0.0
104 0.0
105 0.0
106 0.0
107 0.0
108 0.0
109 0.0
110 0.0
111 0.0
112 0.0
113 0.0
114 0.0
115 0.0
116 0.0
117 0.0
118 0.0
119 0.0
120 0.0
