0 409.0
1 397.0
2 362.0
3 428.0
4 367.0
5 402.0
6 383.0
7 384.0
8 409.0
9 412.0
10 377.0
11 409.0
12 425.0
13 438.0
14 408.0
15 440.0
16 427.0
17 442.0
18 440.0
19 379.0
20 357.0
21 359.0
22 382.0
23 393.0
24 400.0
25 396.0
26 380.0
27 399.0
28 385.0
29 413.0
30 389.0
31 412.0
32 464.0
33 454.0
34 405.0
35 427.0
36 420.0
37 407.0
38 444.0
39 432.0
40 416.0
41 475.0
42 435.0
43 432.0
44 440.0
45 374.0
46 407.0
47 404.0
48 416.0
49 395.0
50 418.0
51 367.0
52 353.0
53 414.0
54 399.0
55 449.0
56 446.0
57 435.0
58 451.0
59 398.0
60 431.0
61 431.0
62 423.0
63 464.0
64 399.0
65 444.0
66 443.0
67 428.0
68 396.0
69 417.0
70 461.0
71 418.0
72 374.0
73 389.0
74 401.0
75 383.0
76 381.0
77 401.0
78 401.0
79 376.0
80 365.0
81 417.0
82 378.0
83 408.0
84 479.0
85 438.0
86 449.0
87 423.0
88 452.0
89 435.0
90 427.0
91 431.0
92 418.0
93 452.0
94 451.0
95 421.0
96 392.0
97 208.0
98 0.0
99 0.0
100 0.0
101 0.0
102 0.0
103 0.0
104 0.0
105 0.0
106 0.0
107 0.0
108 0.0
109 0.0
110 0.0
111 0.0
112 0.0
113 0.0
114 0.0
115 0.0
116 0.0
117 0.0
118 0.0
119 0.0
120 0.0
