0 656.0
1 612.0
2 565.0
3 607.0
4 636.0
5 557.0
6 569.0
7 613.0
8 732.0
9 545.0
10 577.0
11 618.0
12 563.0
13 538.0
14 574.0
15 598.0
16 695.0
17 596.0
18 631.0
19 664.0
20 634.0
21 594.0
22 685.0
23 624.0
24 664.0
25 607.0
26 598.0
27 655.0
28 639.0
29 616.0
30 677.0
31 619.0
32 671.0
33 680.0
34 565.0
35 648.0
36 669.0
37 723.0
38 582.0
39 672.0
40 622.0
41 725.0
42 644.0
43 664.0
44 632.0
45 650.0
46 705.0
47 574.0
48 634.0
49 686.0
50 669.0
51 632.0
52 672.0
53 650.0
54 565.0
55 655.0
56 587.0
57 688.0
58 614.0
59 653.0
60 627.0
61 588.0
62 599.0
63 663.0
64 635.0
65 678.0
66 615.0
67 674.0
68 678.0
69 605.0
70 681.0
71 622.0
72 697.0
73 663.0
74 613.0
75 691.0
76 660.0
77 684.0
78 559.0
79 645.0
80 639.0
81 613.0
82 670.0
83 629.0
84 733.0
85 708.0
86 658.0
87 650.0
88 662.0
89 660.0
90 661.0
91 677.0
92 713.0
93 707.0
94 679.0
95 679.0
96 730.0
97 665.0
98 670.0
99 669.0
100 640.0
101 657.0
102 695.0
103 655.0
104 692.0
105 470.0
106 0.0
107 0.0
108 0.0
109 0.0
110 0.0
111 0.0
112 0.0
113 0.0
114 0.0
115 0.0
116 0.0
117 0.0
118 0.0
119 0.0
120 0.0
