0 418.0
1 376.0
2 432.0
3 339.0
4 407.0
5 454.0
6 440.0
7 406.0
8 368.0
9 404.0
10 408.0
11 400.0
12 385.0
13 423.0
14 394.0
15 366.0
16 408.0
17 466.0
18 398.0
19 425.0
20 421.0
21 414.0
22 429.0
23 398.0
24 435.0
25 406.0
26 445.0
27 399.0
28 419.0
29 412.0
30 419.0
31 449.0
32 464.0
33 421.0
34 463.0
35 465.0
36 405.0
37 468.0
38 413.0
39 454.0
40 389.0
41 438.0
42 429.0
43 399.0
44 458.0
45 390.0
46 414.0
47 454.0
48 385.0
49 451.0
50 390.0
51 408.0
52 375.0
53 387.0
54 468.0
55 454.0
56 458.0
57 466.0
58 403.0
59 411.0
60 391.0
61 428.0
62 442.0
63 437.0
64 453.0
65 442.0
66 455.0
67 428.0
68 464.0
69 440.0
70 460.0
71 478.0
72 452.0
73 444.0
74 470.0
75 438.0
76 412.0
77 388.0
78 365.0
79 434.0
80 391.0
81 387.0
82 406.0
83 390.0
84 375.0
85 432.0
86 447.0
87 426.0
88 457.0
89 424.0
90 418.0
91 250.0
92 0.0
93 0.0
94 0.0
95 0.0
96 0.0
97 0.0
98 0.0
99 0.0
100 0.0
101 0.0
102 0.0
103 0.0
104 0.0
105 0.0
106 0.0
107 0.0
108 0.0
109 0.0
110 0.0
111 0.0
112 0.0
113 0.0
114 0.0
115 0.0
116 0.0
117 0.0
118 0.0
119 0.0
120 0.0
