0 420.0
1 524.0
2 398.0
3 453.0
4 407.0
5 438.0
6 432.0
7 348.0
8 425.0
9 467.0
10 365.0
11 433.0
12 476.0
13 455.0
14 361.0
15 299.0
16 486.0
17 494.0
18 444.0
19 408.0
20 413.0
21 516.0
22 477.0
23 472.0
24 461.0
25 458.0
26 421.0
27 494.0
28 473.0
29 442.0
30 412.0
31 474.0
32 519.0
33 409.0
34 368.0
35 409.0
36 470.0
37 397.0
38 374.0
39 469.0
40 447.0
41 464.0
42 478.0
43 452.0
44 467.0
45 473.0
46 418.0
47 438.0
48 414.0
49 500.0
50 465.0
51 461.0
52 517.0
53 536.0
54 460.0
55 407.0
56 402.0
57 428.0
58 439.0
59 383.0
60 474.0
61 349.0
62 506.0
63 515.0
64 442.0
65 471.0
66 419.0
67 441.0
68 396.0
69 551.0
70 407.0
71 537.0
72 421.0
73 485.0
74 434.0
75 500.0
76 468.0
77 474.0
78 382.0
79 482.0
80 480.0
81 394.0
82 439.0
83 500.0
84 420.0
85 434.0
86 394.0
87 457.0
88 549.0
89 463.0
90 451.0
91 238.0
92 508.0
93 475.0
94 406.0
95 398.0
96 0.0
97 0.0
98 0.0
99 0.0
100 0.0
101 0.0
102 0.0
103 0.0
104 0.0
105 0.0
106 0.0
107 0.0
108 0.0
109 0.0
110 0.0
111 0.0
112 0.0
113 0.0
114 0.0
115 0.0
116 0.0
117 0.0
118 0.0
119 0.0
120 0.0
