0 573.0
1 434.0
2 570.0
3 651.0
4 530.0
5 601.0
6 476.0
7 449.0
8 428.0
9 633.0
10 493.0
11 485.0
12 544.0
13 532.0
14 521.0
15 548.0
16 564.0
17 595.0
18 391.0
19 641.0
20 514.0
21 577.0
22 480.0
23 658.0
24 419.0
25 490.0
26 477.0
27 517.0
28 485.0
29 609.0
30 648.0
31 470.0
32 546.0
33 407.0
34 545.0
35 509.0
36 565.0
37 526.0
38 560.0
39 508.0
40 533.0
41 544.0
42 528.0
43 492.0
44 570.0
45 540.0
46 558.0
47 541.0
48 637.0
49 632.0
50 530.0
51 443.0
52 442.0
53 558.0
54 514.0
55 562.0
56 503.0
57 520.0
58 477.0
59 528.0
60 480.0
61 526.0
62 615.0
63 581.0
64 547.0
65 474.0
66 623.0
67 487.0
68 639.0
69 390.0
70 495.0
71 541.0
72 460.0
73 493.0
74 530.0
75 576.0
76 513.0
77 506.0
78 509.0
79 503.0
80 562.0
81 595.0
82 444.0
83 540.0
84 614.0
85 451.0
86 595.0
87 596.0
88 567.0
89 569.0
90 563.0
91 610.0
92 547.0
93 449.0
94 577.0
95 560.0
96 387.0
97 534.0
98 518.0
99 632.0
100 505.0
101 253.0
102 0.0
103 0.0
104 0.0
105 0.0
106 0.0
107 0.0
108 0.0
109 0.0
110 0.0
111 0.0
112 0.0
113 0.0
114 0.0
115 0.0
116 0.0
117 0.0
118 0.0
119 0.0
120 0.0
