0 1073.0
1 1045.0
2 1038.0
3 1037.0
4 1062.0
5 1042.0
6 1096.0
7 1008.0
8 1117.0
9 1048.0
10 1117.0
11 1042.0
12 1094.0
13 1095.0
14 1058.0
15 1091.0
16 1042.0
17 1131.0
18 1072.0
19 1000.0
20 1077.0
21 1168.0
22 938.0
23 1091.0
24 1037.0
25 1086.0
26 1088.0
27 1109.0
28 1052.0
29 1031.0
30 997.0
31 1080.0
32 1063.0
33 1031.0
34 1160.0
35 1075.0
36 1119.0
37 1097.0
38 1153.0
39 1105.0
40 1077.0
41 1066.0
42 1077.0
43 1093.0
44 1082.0
45 1050.0
46 1123.0
47 1085.0
48 1055.0
49 1056.0
50 1076.0
51 1075.0
52 1089.0
53 1185.0
54 1042.0
55 1075.0
56 1151.0
57 1116.0
58 1024.0
59 1088.0
60 1146.0
61 1076.0
62 1019.0
63 1154.0
64 1093.0
65 1022.0
66 1090.0
67 1104.0
68 1044.0
69 1091.0
70 978.0
71 1094.0
72 1052.0
73 1107.0
74 1091.0
75 1087.0
76 1051.0
77 1114.0
78 1093.0
79 1125.0
80 1034.0
81 1044.0
82 1161.0
83 1084.0
84 1126.0
85 1064.0
86 1036.0
87 1119.0
88 1121.0
89 1139.0
90 1095.0
91 345.0
92 0.0
93 0.0
94 0.0
95 0.0
96 0.0
97 0.0
98 0.0
99 0.0
100 0.0
101 0.0
102 0.0
103 0.0
104 0.0
105 0.0
106 0.0
107 0.0
108 0.0
109 0.0
110 0.0
111 0.0
112 0.0
113 0.0
114 0.0
115 0.0
116 0.0
117 0.0
118 0.0
119 0.0
120 0.0
