0 305.0
1 320.0
2 319.0
3 304.0
4 332.0
5 287.0
6 303.0
7 282.0
8 316.0
9 292.0
10 248.0
11 257.0
12 323.0
13 253.0
14 213.0
15 302.0
16 241.0
17 296.0
18 311.0
19 299.0
20 257.0
21 301.0
22 301.0
23 326.0
24 327.0
25 322.0
26 290.0
27 335.0
28 330.0
29 318.0
30 323.0
31 349.0
32 286.0
33 328.0
34 373.0
35 292.0
36 277.0
37 338.0
38 374.0
39 314.0
40 382.0
41 305.0
42 322.0
43 275.0
44 280.0
45 330.0
46 359.0
47 310.0
48 389.0
49 341.0
50 356.0
51 303.0
52 340.0
53 294.0
54 292.0
55 345.0
56 390.0
57 266.0
58 271.0
59 346.0
60 337.0
61 318.0
62 335.0
63 378.0
64 384.0
65 378.0
66 373.0
67 349.0
68 359.0
69 341.0
70 402.0
71 373.0
72 395.0
73 351.0
74 376.0
75 358.0
76 425.0
77 391.0
78 389.0
79 283.0
80 341.0
81 377.0
82 334.0
83 392.0
84 382.0
85 365.0
86 346.0
87 346.0
88 332.0
89 397.0
90 363.0
91 394.0
92 368.0
93 334.0
94 340.0
95 341.0
96 372.0
97 365.0
98 39.0
99 0.0
100 0.0
101 0.0
102 0.0
103 0.0
104 0.0
105 0.0
106 0.0
107 0.0
108 0.0
109 0.0
110 0.0
111 0.0
112 0.0
113 0.0
114 0.0
115 0.0
116 0.0
117 0.0
118 0.0
119 0.0
120 0.0
