0 1565.0
1 1551.0
2 1548.0
3 1561.0
4 1516.0
5 1556.0
6 1474.0
7 1598.0
8 1522.0
9 1515.0
10 1584.0
11 1423.0
12 1570.0
13 1530.0
14 1563.0
15 1474.0
16 1552.0
17 1588.0
18 1531.0
19 1515.0
20 1550.0
21 1609.0
22 1526.0
23 1500.0
24 1513.0
25 1524.0
26 1538.0
27 1581.0
28 1491.0
29 1567.0
30 1526.0
31 1602.0
32 1475.0
33 1502.0
34 1520.0
35 1558.0
36 1496.0
37 1469.0
38 1573.0
39 1508.0
40 1585.0
41 1475.0
42 1558.0
43 1573.0
44 1515.0
45 1561.0
46 1557.0
47 1580.0
48 1481.0
49 1584.0
50 1606.0
51 1500.0
52 1588.0
53 1492.0
54 1566.0
55 1471.0
56 1524.0
57 1606.0
58 1492.0
59 1540.0
60 1543.0
61 1562.0
62 1520.0
63 1570.0
64 1540.0
65 1605.0
66 1568.0
67 1553.0
68 1544.0
69 1486.0
70 1542.0
71 1549.0
72 1551.0
73 1523.0
74 1522.0
75 1579.0
76 1526.0
77 1575.0
78 1570.0
79 1532.0
80 1527.0
81 1489.0
82 1541.0
83 1563.0
84 1538.0
85 1541.0
86 1586.0
87 1544.0
88 1569.0
89 1510.0
90 1562.0
91 1561.0
92 1498.0
93 1575.0
94 1475.0
95 1641.0
96 1571.0
97 1548.0
98 1594.0
99 1592.0
100 1502.0
101 1541.0
102 18.0
103 0.0
104 0.0
105 0.0
106 0.0
107 0.0
108 0.0
109 0.0
110 0.0
111 0.0
112 0.0
113 0.0
114 0.0
115 0.0
116 0.0
117 0.0
118 0.0
119 0.0
120 0.0
