0 1175.0
1 1176.0
2 1255.0
3 1200.0
4 1162.0
5 1187.0
6 1181.0
7 1180.0
8 1160.0
9 1167.0
10 1205.0
11 1165.0
12 1180.0
13 1156.0
14 1140.0
15 1188.0
16 1167.0
17 1237.0
18 1180.0
19 1245.0
20 1228.0
21 1209.0
22 1198.0
23 1181.0
24 1215.0
25 1172.0
26 1128.0
27 1222.0
28 1257.0
29 1158.0
30 1206.0
31 1192.0
32 1205.0
33 1241.0
34 1242.0
35 1246.0
36 1177.0
37 1181.0
38 1136.0
39 1232.0
40 1136.0
41 1190.0
42 1162.0
43 1132.0
44 1270.0
45 1203.0
46 1147.0
47 1176.0
48 1212.0
49 1182.0
50 1226.0
51 1179.0
52 1139.0
53 1199.0
54 1191.0
55 1128.0
56 1139.0
57 1194.0
58 1198.0
59 1205.0
60 1297.0
61 1188.0
62 1167.0
63 1206.0
64 1130.0
65 1166.0
66 1165.0
67 1235.0
68 1136.0
69 1211.0
70 1163.0
71 1227.0
72 1253.0
73 1191.0
74 1204.0
75 1220.0
76 1306.0
77 1225.0
78 1249.0
79 1218.0
80 1157.0
81 1189.0
82 1243.0
83 1189.0
84 1264.0
85 1138.0
86 1150.0
87 1160.0
88 1239.0
89 1223.0
90 1208.0
91 352.0
92 0.0
93 0.0
94 0.0
95 0.0
96 0.0
97 0.0
98 0.0
99 0.0
100 0.0
101 0.0
102 0.0
103 0.0
104 0.0
105 0.0
106 0.0
107 0.0
108 0.0
109 0.0
110 0.0
111 0.0
112 0.0
113 0.0
114 0.0
115 0.0
116 0.0
117 0.0
118 0.0
119 0.0
120 0.0
