0 1559.0
1 1572.0
2 1549.0
3 1567.0
4 1595.0
5 1563.0
6 1588.0
7 1513.0
8 1613.0
9 1551.0
10 1597.0
11 1514.0
12 1581.0
13 1563.0
14 1596.0
15 1602.0
16 1567.0
17 1612.0
18 1550.0
19 1587.0
20 1513.0
21 1553.0
22 1530.0
23 1616.0
24 1601.0
25 1572.0
26 1539.0
27 1582.0
28 1605.0
29 1501.0
30 1574.0
31 1569.0
32 1669.0
33 1533.0
34 1601.0
35 1575.0
36 1546.0
37 1608.0
38 1457.0
39 1595.0
40 1503.0
41 1639.0
42 1567.0
43 1549.0
44 1518.0
45 1504.0
46 1652.0
47 1513.0
48 1630.0
49 1536.0
50 1645.0
51 1585.0
52 1590.0
53 1536.0
54 1491.0
55 1662.0
56 1486.0
57 1615.0
58 1542.0
59 1657.0
60 1603.0
61 1553.0
62 1540.0
63 1554.0
64 1546.0
65 1577.0
66 1587.0
67 1559.0
68 1590.0
69 1589.0
70 1505.0
71 1564.0
72 1383.0
73 1482.0
74 1607.0
75 1548.0
76 1595.0
77 1506.0
78 1632.0
79 1657.0
80 1575.0
81 1477.0
82 1639.0
83 1493.0
84 1642.0
85 1557.0
86 1570.0
87 1602.0
88 1536.0
89 1587.0
90 1550.0
91 1528.0
92 1499.0
93 1547.0
94 1455.0
95 0.0
96 0.0
97 0.0
98 0.0
99 0.0
100 0.0
101 0.0
102 0.0
103 0.0
104 0.0
105 0.0
106 0.0
107 0.0
108 0.0
109 0.0
110 0.0
111 0.0
112 0.0
113 0.0
114 0.0
115 0.0
116 0.0
117 0.0
118 0.0
119 0.0
120 0.0
