0 341.0
1 346.0
2 419.0
3 385.0
4 327.0
5 400.0
6 359.0
7 347.0
8 337.0
9 366.0
10 415.0
11 384.0
12 439.0
13 379.0
14 439.0
15 391.0
16 381.0
17 366.0
18 359.0
19 356.0
20 369.0
21 360.0
22 397.0
23 391.0
24 393.0
25 357.0
26 380.0
27 408.0
28 405.0
29 385.0
30 403.0
31 387.0
32 450.0
33 488.0
34 451.0
35 469.0
36 392.0
37 461.0
38 435.0
39 440.0
40 441.0
41 389.0
42 419.0
43 427.0
44 420.0
45 457.0
46 408.0
47 403.0
48 383.0
49 381.0
50 414.0
51 440.0
52 430.0
53 371.0
54 448.0
55 412.0
56 432.0
57 396.0
58 383.0
59 486.0
60 402.0
61 389.0
62 432.0
63 429.0
64 449.0
65 456.0
66 512.0
67 436.0
68 409.0
69 355.0
70 421.0
71 449.0
72 493.0
73 443.0
74 412.0
75 400.0
76 477.0
77 458.0
78 444.0
79 418.0
80 432.0
81 367.0
82 450.0
83 444.0
84 412.0
85 401.0
86 429.0
87 441.0
88 415.0
89 443.0
90 355.0
91 277.0
92 0.0
93 0.0
94 0.0
95 0.0
96 0.0
97 0.0
98 0.0
99 0.0
100 0.0
101 0.0
102 0.0
103 0.0
104 0.0
105 0.0
106 0.0
107 0.0
108 0.0
109 0.0
110 0.0
111 0.0
112 0.0
113 0.0
114 0.0
115 0.0
116 0.0
117 0.0
118 0.0
119 0.0
120 0.0
