0 146.0
1 120.0
2 229.0
3 156.0
4 202.0
5 178.0
6 196.0
7 182.0
8 237.0
9 185.0
10 190.0
11 189.0
12 151.0
13 152.0
14 176.0
15 152.0
16 218.0
17 249.0
18 228.0
19 180.0
20 154.0
21 131.0
22 198.0
23 219.0
24 154.0
25 246.0
26 195.0
27 165.0
28 137.0
29 198.0
30 192.0
31 238.0
32 194.0
33 222.0
34 168.0
35 188.0
36 184.0
37 134.0
38 198.0
39 178.0
40 206.0
41 201.0
42 169.0
43 139.0
44 235.0
45 192.0
46 168.0
47 155.0
48 205.0
49 117.0
50 133.0
51 161.0
52 265.0
53 194.0
54 206.0
55 291.0
56 224.0
57 189.0
58 179.0
59 180.0
60 187.0
61 168.0
62 203.0
63 187.0
64 152.0
65 212.0
66 189.0
67 148.0
68 224.0
69 173.0
70 215.0
71 195.0
72 271.0
73 199.0
74 201.0
75 259.0
76 200.0
77 196.0
78 241.0
79 214.0
80 158.0
81 209.0
82 162.0
83 129.0
84 173.0
85 187.0
86 147.0
87 168.0
88 174.0
89 190.0
90 133.0
91 208.0
92 195.0
93 147.0
94 204.0
95 161.0
96 213.0
97 216.0
98 200.0
99 186.0
100 160.0
101 153.0
102 146.0
103 152.0
104 162.0
105 216.0
106 161.0
107 189.0
108 199.0
109 182.0
110 140.0
111 130.0
112 85.0
113 144.0
114 165.0
115 157.0
116 237.0
117 262.0
118 198.0
119 174.0
120 173.0
