0 689.0
1 468.0
2 571.0
3 599.0
4 599.0
5 488.0
6 561.0
7 634.0
8 529.0
9 448.0
10 529.0
11 564.0
12 585.0
13 545.0
14 556.0
15 546.0
16 596.0
17 533.0
18 517.0
19 503.0
20 471.0
21 593.0
22 585.0
23 469.0
24 485.0
25 591.0
26 616.0
27 562.0
28 531.0
29 464.0
30 520.0
31 600.0
32 598.0
33 586.0
34 594.0
35 552.0
36 460.0
37 515.0
38 578.0
39 616.0
40 672.0
41 471.0
42 615.0
43 633.0
44 583.0
45 598.0
46 571.0
47 554.0
48 647.0
49 651.0
50 631.0
51 575.0
52 494.0
53 567.0
54 623.0
55 638.0
56 551.0
57 522.0
58 564.0
59 535.0
60 571.0
61 540.0
62 460.0
63 528.0
64 596.0
65 569.0
66 626.0
67 522.0
68 652.0
69 492.0
70 592.0
71 555.0
72 519.0
73 628.0
74 454.0
75 569.0
76 550.0
77 540.0
78 621.0
79 587.0
80 503.0
81 639.0
82 625.0
83 577.0
84 613.0
85 570.0
86 508.0
87 620.0
88 665.0
89 631.0
90 580.0
91 644.0
92 489.0
93 133.0
94 0.0
95 0.0
96 0.0
97 0.0
98 0.0
99 0.0
100 0.0
101 0.0
102 0.0
103 0.0
104 0.0
105 0.0
106 0.0
107 0.0
108 0.0
109 0.0
110 0.0
111 0.0
112 0.0
113 0.0
114 0.0
115 0.0
116 0.0
117 0.0
118 0.0
119 0.0
120 0.0
