0 391.0
1 443.0
2 464.0
3 410.0
4 435.0
5 468.0
6 476.0
7 467.0
8 487.0
9 344.0
10 442.0
11 502.0
12 519.0
13 410.0
14 464.0
15 499.0
16 469.0
17 454.0
18 434.0
19 509.0
20 465.0
21 527.0
22 435.0
23 444.0
24 481.0
25 489.0
26 470.0
27 512.0
28 542.0
29 492.0
30 466.0
31 439.0
32 408.0
33 490.0
34 529.0
35 530.0
36 502.0
37 468.0
38 411.0
39 443.0
40 563.0
41 507.0
42 506.0
43 532.0
44 561.0
45 531.0
46 512.0
47 476.0
48 411.0
49 529.0
50 542.0
51 475.0
52 485.0
53 508.0
54 410.0
55 353.0
56 436.0
57 493.0
58 471.0
59 518.0
60 451.0
61 423.0
62 431.0
63 506.0
64 466.0
65 493.0
66 530.0
67 526.0
68 483.0
69 459.0
70 437.0
71 493.0
72 528.0
73 460.0
74 502.0
75 453.0
76 451.0
77 519.0
78 493.0
79 447.0
80 447.0
81 458.0
82 443.0
83 592.0
84 454.0
85 482.0
86 512.0
87 525.0
88 576.0
89 540.0
90 507.0
91 496.0
92 271.0
93 0.0
94 0.0
95 0.0
96 0.0
97 0.0
98 0.0
99 0.0
100 0.0
101 0.0
102 0.0
103 0.0
104 0.0
105 0.0
106 0.0
107 0.0
108 0.0
109 0.0
110 0.0
111 0.0
112 0.0
113 0.0
114 0.0
115 0.0
116 0.0
117 0.0
118 0.0
119 0.0
120 0.0
