0 643.0
1 540.0
2 543.0
3 479.0
4 473.0
5 505.0
6 541.0
7 463.0
8 501.0
9 451.0
10 665.0
11 466.0
12 663.0
13 563.0
14 550.0
15 479.0
16 537.0
17 510.0
18 535.0
19 508.0
20 515.0
21 550.0
22 539.0
23 460.0
24 490.0
25 453.0
26 534.0
27 473.0
28 570.0
29 420.0
30 484.0
31 448.0
32 500.0
33 455.0
34 513.0
35 482.0
36 447.0
37 567.0
38 603.0
39 558.0
40 549.0
41 578.0
42 538.0
43 541.0
44 519.0
45 491.0
46 514.0
47 612.0
48 570.0
49 338.0
50 554.0
51 549.0
52 591.0
53 532.0
54 511.0
55 484.0
56 484.0
57 494.0
58 386.0
59 505.0
60 444.0
61 676.0
62 532.0
63 400.0
64 628.0
65 471.0
66 673.0
67 526.0
68 554.0
69 633.0
70 617.0
71 567.0
72 637.0
73 485.0
74 495.0
75 534.0
76 533.0
77 490.0
78 488.0
79 573.0
80 496.0
81 569.0
82 553.0
83 472.0
84 493.0
85 467.0
86 624.0
87 542.0
88 555.0
89 378.0
90 572.0
91 479.0
92 380.0
93 483.0
94 483.0
95 454.0
96 542.0
97 514.0
98 588.0
99 510.0
100 461.0
101 543.0
102 521.0
103 522.0
104 102.0
105 0.0
106 0.0
107 0.0
108 0.0
109 0.0
110 0.0
111 0.0
112 0.0
113 0.0
114 0.0
115 0.0
116 0.0
117 0.0
118 0.0
119 0.0
120 0.0
