0 322.0
1 358.0
2 319.0
3 378.0
4 322.0
5 340.0
6 383.0
7 344.0
8 295.0
9 374.0
10 365.0
11 332.0
12 327.0
13 357.0
14 341.0
15 331.0
16 383.0
17 339.0
18 417.0
19 294.0
20 407.0
21 369.0
22 332.0
23 303.0
24 425.0
25 333.0
26 312.0
27 293.0
28 303.0
29 382.0
30 364.0
31 321.0
32 386.0
33 355.0
34 357.0
35 381.0
36 350.0
37 366.0
38 365.0
39 356.0
40 355.0
41 335.0
42 394.0
43 369.0
44 363.0
45 318.0
46 309.0
47 328.0
48 332.0
49 344.0
50 356.0
51 342.0
52 365.0
53 343.0
54 381.0
55 326.0
56 409.0
57 366.0
58 364.0
59 324.0
60 384.0
61 310.0
62 345.0
63 347.0
64 355.0
65 313.0
66 357.0
67 432.0
68 396.0
69 305.0
70 368.0
71 359.0
72 328.0
73 334.0
74 371.0
75 367.0
76 346.0
77 349.0
78 313.0
79 346.0
80 367.0
81 404.0
82 381.0
83 333.0
84 288.0
85 299.0
86 376.0
87 388.0
88 403.0
89 354.0
90 364.0
91 341.0
92 394.0
93 378.0
94 371.0
95 174.0
96 0.0
97 0.0
98 0.0
99 0.0
100 0.0
101 0.0
102 0.0
103 0.0
104 0.0
105 0.0
106 0.0
107 0.0
108 0.0
109 0.0
110 0.0
111 0.0
112 0.0
113 0.0
114 0.0
115 0.0
116 0.0
117 0.0
118 0.0
119 0.0
120 0.0
