0 204.0
1 242.0
2 269.0
3 203.0
4 235.0
5 192.0
6 204.0
7 215.0
8 150.0
9 245.0
10 242.0
11 179.0
12 234.0
13 218.0
14 200.0
15 157.0
16 198.0
17 247.0
18 197.0
19 181.0
20 244.0
21 278.0
22 193.0
23 194.0
24 191.0
25 224.0
26 231.0
27 179.0
28 201.0
29 236.0
30 172.0
31 221.0
32 216.0
33 254.0
34 266.0
35 276.0
36 297.0
37 191.0
38 173.0
39 235.0
40 205.0
41 282.0
42 189.0
43 238.0
44 211.0
45 230.0
46 185.0
47 230.0
48 237.0
49 206.0
50 196.0
51 236.0
52 249.0
53 236.0
54 282.0
55 224.0
56 222.0
57 237.0
58 281.0
59 226.0
60 195.0
61 210.0
62 240.0
63 218.0
64 211.0
65 196.0
66 254.0
67 185.0
68 235.0
69 267.0
70 230.0
71 218.0
72 226.0
73 214.0
74 153.0
75 221.0
76 226.0
77 218.0
78 281.0
79 213.0
80 165.0
81 211.0
82 237.0
83 190.0
84 239.0
85 247.0
86 231.0
87 221.0
88 272.0
89 215.0
90 271.0
91 217.0
92 278.0
93 187.0
94 199.0
95 0.0
96 0.0
97 0.0
98 0.0
99 0.0
100 0.0
101 0.0
102 0.0
103 0.0
104 0.0
105 0.0
106 0.0
107 0.0
108 0.0
109 0.0
110 0.0
111 0.0
112 0.0
113 0.0
114 0.0
115 0.0
116 0.0
117 0.0
118 0.0
119 0.0
120 0.0
