0 1683.0
1 1515.0
2 1239.0
3 1754.0
4 1782.0
5 1547.0
6 1727.0
7 1678.0
8 1672.0
9 1653.0
10 1462.0
11 1677.0
12 1422.0
13 1573.0
14 1633.0
15 1692.0
16 1772.0
17 1609.0
18 1732.0
19 1667.0
20 1512.0
21 1639.0
22 1684.0
23 1241.0
24 1684.0
25 1658.0
26 1822.0
27 1657.0
28 1315.0
29 1879.0
30 1851.0
31 1738.0
32 1506.0
33 1909.0
34 1713.0
35 1983.0
36 1400.0
37 1706.0
38 1352.0
39 1658.0
40 1477.0
41 1683.0
42 1539.0
43 1785.0
44 1534.0
45 1746.0
46 1655.0
47 1757.0
48 1772.0
49 1550.0
50 1622.0
51 1595.0
52 1825.0
53 1410.0
54 1574.0
55 1803.0
56 1650.0
57 1415.0
58 1604.0
59 1663.0
60 1812.0
61 1537.0
62 1530.0
63 1529.0
64 1974.0
65 2000.0
66 1237.0
67 1315.0
68 1887.0
69 1941.0
70 1587.0
71 1367.0
72 1786.0
73 1684.0
74 1710.0
75 1449.0
76 1852.0
77 1847.0
78 2021.0
79 1480.0
80 1407.0
81 1787.0
82 1822.0
83 1770.0
84 1460.0
85 1812.0
86 1778.0
87 1917.0
88 1321.0
89 1734.0
90 1844.0
91 1540.0
92 1435.0
93 1850.0
94 1659.0
95 1976.0
96 1809.0
97 1891.0
98 1874.0
99 1753.0
100 2027.0
101 1637.0
102 1727.0
103 1942.0
104 1760.0
105 935.0
106 0.0
107 0.0
108 0.0
109 0.0
110 0.0
111 0.0
112 0.0
113 0.0
114 0.0
115 0.0
116 0.0
117 0.0
118 0.0
119 0.0
120 0.0
