0 549.0
1 515.0
2 575.0
3 514.0
4 606.0
5 561.0
6 518.0
7 553.0
8 484.0
9 502.0
10 529.0
11 466.0
12 540.0
13 591.0
14 543.0
15 507.0
16 535.0
17 540.0
18 463.0
19 506.0
20 474.0
21 520.0
22 508.0
23 666.0
24 493.0
25 495.0
26 609.0
27 546.0
28 544.0
29 549.0
30 512.0
31 464.0
32 540.0
33 507.0
34 528.0
35 586.0
36 577.0
37 523.0
38 619.0
39 462.0
40 554.0
41 548.0
42 550.0
43 576.0
44 466.0
45 534.0
46 568.0
47 503.0
48 537.0
49 494.0
50 582.0
51 584.0
52 540.0
53 522.0
54 547.0
55 566.0
56 577.0
57 664.0
58 550.0
59 489.0
60 564.0
61 629.0
62 539.0
63 588.0
64 559.0
65 566.0
66 564.0
67 479.0
68 597.0
69 570.0
70 520.0
71 525.0
72 487.0
73 527.0
74 561.0
75 575.0
76 532.0
77 494.0
78 579.0
79 635.0
80 581.0
81 572.0
82 577.0
83 604.0
84 527.0
85 515.0
86 502.0
87 560.0
88 559.0
89 602.0
90 556.0
91 501.0
92 96.0
93 0.0
94 0.0
95 0.0
96 0.0
97 0.0
98 0.0
99 0.0
100 0.0
101 0.0
102 0.0
103 0.0
104 0.0
105 0.0
106 0.0
107 0.0
108 0.0
109 0.0
110 0.0
111 0.0
112 0.0
113 0.0
114 0.0
115 0.0
116 0.0
117 0.0
118 0.0
119 0.0
120 0.0
