0 165.0
1 158.0
2 203.0
3 168.0
4 178.0
5 237.0
6 248.0
7 156.0
8 178.0
9 216.0
10 228.0
11 235.0
12 123.0
13 197.0
14 184.0
15 208.0
16 150.0
17 208.0
18 227.0
19 210.0
20 174.0
21 216.0
22 231.0
23 238.0
24 171.0
25 182.0
26 207.0
27 207.0
28 172.0
29 205.0
30 231.0
31 159.0
32 272.0
33 220.0
34 238.0
35 227.0
36 224.0
37 215.0
38 211.0
39 214.0
40 330.0
41 185.0
42 233.0
43 217.0
44 218.0
45 287.0
46 218.0
47 232.0
48 252.0
49 204.0
50 214.0
51 242.0
52 254.0
53 257.0
54 190.0
55 229.0
56 245.0
57 206.0
58 168.0
59 191.0
60 211.0
61 228.0
62 193.0
63 183.0
64 232.0
65 172.0
66 167.0
67 190.0
68 224.0
69 203.0
70 208.0
71 220.0
72 103.0
73 249.0
74 194.0
75 273.0
76 239.0
77 256.0
78 214.0
79 224.0
80 261.0
81 207.0
82 246.0
83 197.0
84 217.0
85 206.0
86 218.0
87 263.0
88 270.0
89 235.0
90 174.0
91 198.0
92 255.0
93 240.0
94 59.0
95 0.0
96 0.0
97 0.0
98 0.0
99 0.0
100 0.0
101 0.0
102 0.0
103 0.0
104 0.0
105 0.0
106 0.0
107 0.0
108 0.0
109 0.0
110 0.0
111 0.0
112 0.0
113 0.0
114 0.0
115 0.0
116 0.0
117 0.0
118 0.0
119 0.0
120 0.0
