0 1007.0
1 1054.0
2 1048.0
3 1087.0
4 1025.0
5 1056.0
6 1024.0
7 1012.0
8 1018.0
9 1007.0
10 975.0
11 1056.0
12 976.0
13 1011.0
14 1053.0
15 1030.0
16 977.0
17 1042.0
18 1003.0
19 1070.0
20 993.0
21 1048.0
22 1022.0
23 1040.0
24 970.0
25 1009.0
26 1071.0
27 1068.0
28 963.0
29 987.0
30 1006.0
31 1065.0
32 1040.0
33 1041.0
34 1055.0
35 1056.0
36 968.0
37 1026.0
38 1076.0
39 1026.0
40 978.0
41 1003.0
42 1031.0
43 1037.0
44 971.0
45 995.0
46 1020.0
47 992.0
48 998.0
49 1076.0
50 1068.0
51 973.0
52 1008.0
53 1075.0
54 1032.0
55 1032.0
56 1004.0
57 975.0
58 1017.0
59 998.0
60 1026.0
61 1000.0
62 1020.0
63 956.0
64 1017.0
65 1035.0
66 1039.0
67 1019.0
68 1100.0
69 989.0
70 992.0
71 953.0
72 1014.0
73 1042.0
74 1019.0
75 1004.0
76 1025.0
77 1007.0
78 1068.0
79 1029.0
80 1031.0
81 1033.0
82 1049.0
83 975.0
84 975.0
85 1060.0
86 1027.0
87 1067.0
88 1015.0
89 1077.0
90 1024.0
91 307.0
92 0.0
93 0.0
94 0.0
95 0.0
96 0.0
97 0.0
98 0.0
99 0.0
100 0.0
101 0.0
102 0.0
103 0.0
104 0.0
105 0.0
106 0.0
107 0.0
108 0.0
109 0.0
110 0.0
111 0.0
112 0.0
113 0.0
114 0.0
115 0.0
116 0.0
117 0.0
118 0.0
119 0.0
120 0.0
