0 1007.0
1 1058.0
2 1045.0
3 1085.0
4 1030.0
5 1055.0
6 1022.0
7 997.0
8 1030.0
9 1014.0
10 978.0
11 1055.0
12 980.0
13 1007.0
14 1050.0
15 1034.0
16 971.0
17 1049.0
18 992.0
19 1070.0
20 1001.0
21 1043.0
22 1023.0
23 1046.0
24 960.0
25 1018.0
26 1069.0
27 1075.0
28 958.0
29 986.0
30 1002.0
31 1069.0
32 1039.0
33 1053.0
34 1037.0
35 1065.0
36 966.0
37 1022.0
38 1077.0
39 1030.0
40 976.0
41 1000.0
42 1033.0
43 1043.0
44 963.0
45 996.0
46 1020.0
47 992.0
48 996.0
49 1081.0
50 1069.0
51 968.0
52 1006.0
53 1080.0
54 1038.0
55 1026.0
56 1005.0
57 974.0
58 1012.0
59 1001.0
60 1026.0
61 1006.0
62 1018.0
63 958.0
64 1014.0
65 1037.0
66 1038.0
67 1028.0
68 1092.0
69 988.0
70 997.0
71 944.0
72 1018.0
73 1042.0
74 1016.0
75 1002.0
76 1027.0
77 1006.0
78 1074.0
79 1027.0
80 1032.0
81 1036.0
82 1042.0
83 976.0
84 974.0
85 1069.0
86 1018.0
87 1066.0
88 1018.0
89 1079.0
90 1028.0
91 285.0
92 0.0
93 0.0
94 0.0
95 0.0
96 0.0
97 0.0
98 0.0
99 0.0
100 0.0
101 0.0
102 0.0
103 0.0
104 0.0
105 0.0
106 0.0
107 0.0
108 0.0
109 0.0
110 0.0
111 0.0
112 0.0
113 0.0
114 0.0
115 0.0
116 0.0
117 0.0
118 0.0
119 0.0
120 0.0
