0 393.0
1 352.0
2 350.0
3 464.0
4 433.0
5 430.0
6 363.0
7 370.0
8 396.0
9 411.0
10 343.0
11 401.0
12 483.0
13 429.0
14 445.0
15 407.0
16 439.0
17 446.0
18 467.0
19 448.0
20 431.0
21 451.0
22 411.0
23 453.0
24 434.0
25 479.0
26 445.0
27 437.0
28 483.0
29 411.0
30 415.0
31 365.0
32 296.0
33 401.0
34 457.0
35 396.0
36 394.0
37 482.0
38 333.0
39 411.0
40 414.0
41 426.0
42 445.0
43 447.0
44 331.0
45 365.0
46 382.0
47 338.0
48 494.0
49 444.0
50 376.0
51 499.0
52 482.0
53 437.0
54 434.0
55 507.0
56 401.0
57 436.0
58 432.0
59 514.0
60 426.0
61 459.0
62 321.0
63 415.0
64 426.0
65 448.0
66 407.0
67 495.0
68 390.0
69 420.0
70 408.0
71 385.0
72 437.0
73 429.0
74 434.0
75 472.0
76 411.0
77 426.0
78 488.0
79 378.0
80 386.0
81 406.0
82 369.0
83 376.0
84 364.0
85 474.0
86 315.0
87 411.0
88 347.0
89 394.0
90 388.0
91 457.0
92 393.0
93 386.0
94 357.0
95 401.0
96 469.0
97 456.0
98 454.0
99 487.0
100 418.0
101 327.0
102 428.0
103 411.0
104 185.0
105 0.0
106 0.0
107 0.0
108 0.0
109 0.0
110 0.0
111 0.0
112 0.0
113 0.0
114 0.0
115 0.0
116 0.0
117 0.0
118 0.0
119 0.0
120 0.0
