0 301.0
1 281.0
2 317.0
3 285.0
4 243.0
5 340.0
6 309.0
7 307.0
8 314.0
9 272.0
10 315.0
11 249.0
12 277.0
13 319.0
14 290.0
15 254.0
16 256.0
17 290.0
18 216.0
19 245.0
20 297.0
21 296.0
22 303.0
23 301.0
24 305.0
25 341.0
26 295.0
27 280.0
28 241.0
29 301.0
30 244.0
31 258.0
32 305.0
33 261.0
34 273.0
35 224.0
36 340.0
37 356.0
38 336.0
39 240.0
40 310.0
41 212.0
42 213.0
43 327.0
44 304.0
45 257.0
46 285.0
47 316.0
48 354.0
49 251.0
50 258.0
51 218.0
52 359.0
53 288.0
54 275.0
55 184.0
56 305.0
57 260.0
58 374.0
59 282.0
60 328.0
61 246.0
62 287.0
63 306.0
64 246.0
65 272.0
66 233.0
67 175.0
68 329.0
69 334.0
70 279.0
71 309.0
72 312.0
73 369.0
74 313.0
75 255.0
76 265.0
77 336.0
78 295.0
79 233.0
80 307.0
81 280.0
82 298.0
83 278.0
84 169.0
85 266.0
86 236.0
87 321.0
88 288.0
89 276.0
90 246.0
91 278.0
92 327.0
93 290.0
94 243.0
95 287.0
96 277.0
97 282.0
98 340.0
99 331.0
100 270.0
101 379.0
102 296.0
103 328.0
104 289.0
105 359.0
106 274.0
107 226.0
108 299.0
109 309.0
110 273.0
111 285.0
112 305.0
113 186.0
114 298.0
115 282.0
116 343.0
117 232.0
118 153.0
119 0.0
120 0.0
