0 462.0
1 564.0
2 637.0
3 512.0
4 543.0
5 530.0
6 482.0
7 594.0
8 571.0
9 588.0
10 515.0
11 518.0
12 513.0
13 497.0
14 442.0
15 401.0
16 501.0
17 550.0
18 506.0
19 483.0
20 584.0
21 609.0
22 613.0
23 538.0
24 625.0
25 530.0
26 551.0
27 564.0
28 593.0
29 609.0
30 540.0
31 520.0
32 545.0
33 519.0
34 540.0
35 601.0
36 578.0
37 572.0
38 541.0
39 457.0
40 502.0
41 484.0
42 499.0
43 432.0
44 571.0
45 574.0
46 614.0
47 497.0
48 461.0
49 530.0
50 456.0
51 540.0
52 517.0
53 535.0
54 521.0
55 590.0
56 508.0
57 546.0
58 559.0
59 487.0
60 508.0
61 570.0
62 498.0
63 515.0
64 585.0
65 464.0
66 505.0
67 578.0
68 482.0
69 553.0
70 521.0
71 578.0
72 496.0
73 657.0
74 488.0
75 565.0
76 547.0
77 497.0
78 563.0
79 505.0
80 577.0
81 471.0
82 568.0
83 576.0
84 553.0
85 609.0
86 514.0
87 622.0
88 512.0
89 534.0
90 553.0
91 582.0
92 67.0
93 0.0
94 0.0
95 0.0
96 0.0
97 0.0
98 0.0
99 0.0
100 0.0
101 0.0
102 0.0
103 0.0
104 0.0
105 0.0
106 0.0
107 0.0
108 0.0
109 0.0
110 0.0
111 0.0
112 0.0
113 0.0
114 0.0
115 0.0
116 0.0
117 0.0
118 0.0
119 0.0
120 0.0
