0 1357.0
1 1282.0
2 1312.0
3 1386.0
4 1348.0
5 1334.0
6 1360.0
7 1328.0
8 1447.0
9 1369.0
10 1367.0
11 1398.0
12 1324.0
13 1291.0
14 1412.0
15 1339.0
16 1349.0
17 1351.0
18 1416.0
19 1415.0
20 1284.0
21 1430.0
22 1329.0
23 1400.0
24 1333.0
25 1281.0
26 1350.0
27 1323.0
28 1333.0
29 1358.0
30 1413.0
31 1267.0
32 1409.0
33 1346.0
34 1413.0
35 1339.0
36 1444.0
37 1395.0
38 1338.0
39 1358.0
40 1418.0
41 1383.0
42 1251.0
43 1280.0
44 1367.0
45 1360.0
46 1301.0
47 1471.0
48 1397.0
49 1315.0
50 1338.0
51 1310.0
52 1350.0
53 1383.0
54 1327.0
55 1327.0
56 1279.0
57 1415.0
58 1389.0
59 1389.0
60 1285.0
61 1349.0
62 1301.0
63 1429.0
64 1314.0
65 1338.0
66 1400.0
67 1317.0
68 1329.0
69 1327.0
70 1411.0
71 1383.0
72 1318.0
73 1359.0
74 1327.0
75 1301.0
76 1308.0
77 1433.0
78 1391.0
79 1319.0
80 1360.0
81 1474.0
82 1371.0
83 1405.0
84 1316.0
85 1382.0
86 1400.0
87 1318.0
88 1332.0
89 1340.0
90 1402.0
91 624.0
92 0.0
93 0.0
94 0.0
95 0.0
96 0.0
97 0.0
98 0.0
99 0.0
100 0.0
101 0.0
102 0.0
103 0.0
104 0.0
105 0.0
106 0.0
107 0.0
108 0.0
109 0.0
110 0.0
111 0.0
112 0.0
113 0.0
114 0.0
115 0.0
116 0.0
117 0.0
118 0.0
119 0.0
120 0.0
