0 1341.0
1 1283.0
2 1322.0
3 1384.0
4 1342.0
5 1332.0
6 1365.0
7 1333.0
8 1448.0
9 1368.0
10 1373.0
11 1404.0
12 1303.0
13 1309.0
14 1402.0
15 1341.0
16 1339.0
17 1348.0
18 1430.0
19 1398.0
20 1310.0
21 1409.0
22 1336.0
23 1390.0
24 1346.0
25 1288.0
26 1342.0
27 1317.0
28 1353.0
29 1346.0
30 1408.0
31 1281.0
32 1389.0
33 1353.0
34 1403.0
35 1344.0
36 1453.0
37 1387.0
38 1334.0
39 1376.0
40 1408.0
41 1376.0
42 1264.0
43 1285.0
44 1357.0
45 1360.0
46 1296.0
47 1471.0
48 1393.0
49 1314.0
50 1352.0
51 1298.0
52 1365.0
53 1357.0
54 1336.0
55 1336.0
56 1278.0
57 1422.0
58 1380.0
59 1404.0
60 1267.0
61 1348.0
62 1321.0
63 1412.0
64 1320.0
65 1335.0
66 1389.0
67 1338.0
68 1318.0
69 1332.0
70 1399.0
71 1392.0
72 1316.0
73 1346.0
74 1342.0
75 1286.0
76 1323.0
77 1422.0
78 1391.0
79 1340.0
80 1346.0
81 1476.0
82 1362.0
83 1406.0
84 1330.0
85 1417.0
86 1365.0
87 1304.0
88 1345.0
89 1326.0
90 1412.0
91 664.0
92 0.0
93 0.0
94 0.0
95 0.0
96 0.0
97 0.0
98 0.0
99 0.0
100 0.0
101 0.0
102 0.0
103 0.0
104 0.0
105 0.0
106 0.0
107 0.0
108 0.0
109 0.0
110 0.0
111 0.0
112 0.0
113 0.0
114 0.0
115 0.0
116 0.0
117 0.0
118 0.0
119 0.0
120 0.0
