0 6621.0
1 6096.0
2 6718.0
3 6707.0
4 6823.0
5 6636.0
6 6819.0
7 6755.0
8 6688.0
9 6743.0
10 6645.0
11 6501.0
12 6961.0
13 6753.0
14 6451.0
15 6740.0
16 6713.0
17 6611.0
18 7028.0
19 6718.0
20 6565.0
21 6464.0
22 6599.0
23 6912.0
24 6694.0
25 6766.0
26 6595.0
27 6652.0
28 6085.0
29 6779.0
30 6634.0
31 5925.0
32 6735.0
33 6348.0
34 6060.0
35 6342.0
36 6900.0
37 6624.0
38 6613.0
39 6346.0
40 6689.0
41 6747.0
42 6301.0
43 6773.0
44 6865.0
45 7011.0
46 6743.0
47 6668.0
48 7002.0
49 5774.0
50 6564.0
51 6710.0
52 6993.0
53 6542.0
54 6548.0
55 6522.0
56 6213.0
57 6210.0
58 6822.0
59 6778.0
60 6773.0
61 6821.0
62 6575.0
63 6819.0
64 6213.0
65 6414.0
66 6954.0
67 7148.0
68 6759.0
69 6539.0
70 6572.0
71 6957.0
72 6467.0
73 6374.0
74 6713.0
75 6728.0
76 6365.0
77 6346.0
78 6596.0
79 6513.0
80 6578.0
81 6550.0
82 6605.0
83 5930.0
84 6241.0
85 6775.0
86 6194.0
87 6790.0
88 6614.0
89 6369.0
90 6778.0
91 4446.0
92 6906.0
93 6762.0
94 6699.0
95 6975.0
96 6717.0
97 6992.0
98 7515.0
99 7008.0
100 6715.0
101 7082.0
102 6425.0
103 0.0
104 0.0
105 0.0
106 0.0
107 0.0
108 0.0
109 0.0
110 0.0
111 0.0
112 0.0
113 0.0
114 0.0
115 0.0
116 0.0
117 0.0
118 0.0
119 0.0
120 0.0
