0 429.0
1 359.0
2 407.0
3 364.0
4 320.0
5 382.0
6 372.0
7 406.0
8 412.0
9 394.0
10 425.0
11 331.0
12 393.0
13 401.0
14 359.0
15 382.0
16 363.0
17 391.0
18 425.0
19 387.0
20 470.0
21 408.0
22 404.0
23 430.0
24 372.0
25 391.0
26 386.0
27 476.0
28 425.0
29 410.0
30 422.0
31 439.0
32 381.0
33 413.0
34 423.0
35 452.0
36 448.0
37 403.0
38 407.0
39 417.0
40 447.0
41 403.0
42 384.0
43 423.0
44 409.0
45 449.0
46 363.0
47 464.0
48 365.0
49 479.0
50 403.0
51 355.0
52 458.0
53 417.0
54 368.0
55 357.0
56 435.0
57 445.0
58 406.0
59 480.0
60 394.0
61 407.0
62 370.0
63 427.0
64 360.0
65 378.0
66 399.0
67 464.0
68 452.0
69 434.0
70 381.0
71 407.0
72 375.0
73 395.0
74 451.0
75 463.0
76 440.0
77 415.0
78 400.0
79 423.0
80 377.0
81 420.0
82 370.0
83 383.0
84 358.0
85 345.0
86 411.0
87 424.0
88 401.0
89 382.0
90 357.0
91 303.0
92 0.0
93 0.0
94 0.0
95 0.0
96 0.0
97 0.0
98 0.0
99 0.0
100 0.0
101 0.0
102 0.0
103 0.0
104 0.0
105 0.0
106 0.0
107 0.0
108 0.0
109 0.0
110 0.0
111 0.0
112 0.0
113 0.0
114 0.0
115 0.0
116 0.0
117 0.0
118 0.0
119 0.0
120 0.0
